<?xml version="1.0" encoding="UTF-8" standalone="no"?>
<!-- Created with Inkscape (http://www.inkscape.org/) -->

<svg
   xmlns:dc="http://purl.org/dc/elements/1.1/"
   xmlns:cc="http://creativecommons.org/ns#"
   xmlns:rdf="http://www.w3.org/1999/02/22-rdf-syntax-ns#"
   xmlns:svg="http://www.w3.org/2000/svg"
   xmlns="http://www.w3.org/2000/svg"
   xmlns:sodipodi="http://sodipodi.sourceforge.net/DTD/sodipodi-0.dtd"
   xmlns:inkscape="http://www.inkscape.org/namespaces/inkscape"
   width="341.28333mm"
   height="231.21666mm"
   viewBox="0 0 341.28333 231.21666"
   version="1.1"
   id="svg8"
   inkscape:version="0.92.3 (2405546, 2018-03-11)"
   sodipodi:docname="exo-01-figure-01.svg">
  <defs
     id="defs2" />
  <sodipodi:namedview
     id="base"
     pagecolor="#ffffff"
     bordercolor="#666666"
     borderopacity="1.0"
     inkscape:pageopacity="0.0"
     inkscape:pageshadow="2"
     inkscape:zoom="0.5"
     inkscape:cx="654.70537"
     inkscape:cy="382.0289"
     inkscape:document-units="mm"
     inkscape:current-layer="layer1"
     showgrid="false"
     showborder="false"
     inkscape:snap-global="false"
     fit-margin-top="0"
     fit-margin-left="0"
     fit-margin-right="0"
     fit-margin-bottom="0"
     inkscape:window-width="1366"
     inkscape:window-height="713"
     inkscape:window-x="0"
     inkscape:window-y="27"
     inkscape:window-maximized="1" />
  <metadata
     id="metadata5">
    <rdf:RDF>
      <cc:Work
         rdf:about="">
        <dc:format>image/svg+xml</dc:format>
        <dc:type
           rdf:resource="http://purl.org/dc/dcmitype/StillImage" />
        <dc:title></dc:title>
      </cc:Work>
    </rdf:RDF>
  </metadata>
  <g
     inkscape:label="Layer 1"
     inkscape:groupmode="layer"
     id="layer1"
     transform="translate(62.162498,46.150002)">
    <g
       id="g849"
       transform="matrix(1.6568186,0,0,1.6568186,17.295079,-65.213247)">
      <text
         transform="rotate(-90)"
         id="text817"
         y="-23.689476"
         x="-107.67544"
         style="font-style:normal;font-variant:normal;font-weight:normal;font-stretch:normal;font-size:10.58333302px;line-height:1.25;font-family:'Linux Libertine O';-inkscape-font-specification:'Linux Libertine O';letter-spacing:0px;word-spacing:0px;fill:#000000;fill-opacity:1;stroke:none;stroke-width:0.26458332;stroke-linejoin:miter"
         xml:space="preserve"><tspan
           style="stroke-width:0.26458332;stroke-linejoin:miter"
           y="-23.689476"
           x="-107.67544"
           id="tspan815"
           sodipodi:role="line">✈</tspan></text>
      <path
         id="rect823"
         transform="scale(0.26458333)"
         d="m -117.69727,376.58398 v 0.94532 12.75781 h 1.89063 v -11.8125 h 9.27148 v -1.89063 z m 15.98243,0 v 1.89063 h 9.271481 v 11.8125 h 1.890625 v -13.70313 z m -15.98243,20.66797 v 6.47461 h 8.03711 v -1.88867 h -6.14648 v -4.58594 z m 25.253911,0 v 4.58594 h -6.146485 v 1.88867 h 8.03711 v -6.47461 z"
         style="color:#000000;font-style:normal;font-variant:normal;font-weight:normal;font-stretch:normal;font-size:medium;line-height:normal;font-family:sans-serif;font-variant-ligatures:normal;font-variant-position:normal;font-variant-caps:normal;font-variant-numeric:normal;font-variant-alternates:normal;font-feature-settings:normal;text-indent:0;text-align:start;text-decoration:none;text-decoration-line:none;text-decoration-style:solid;text-decoration-color:#000000;letter-spacing:normal;word-spacing:normal;text-transform:none;writing-mode:lr-tb;direction:ltr;text-orientation:mixed;dominant-baseline:auto;baseline-shift:baseline;text-anchor:start;white-space:normal;shape-padding:0;clip-rule:nonzero;display:inline;overflow:visible;visibility:visible;opacity:1;isolation:auto;mix-blend-mode:normal;color-interpolation:sRGB;color-interpolation-filters:linearRGB;solid-color:#000000;solid-opacity:1;vector-effect:none;fill:#000000;fill-opacity:1;fill-rule:nonzero;stroke:none;stroke-width:1.88976383;stroke-linecap:butt;stroke-linejoin:miter;stroke-miterlimit:4;stroke-dasharray:none;stroke-dashoffset:0;stroke-opacity:1;color-rendering:auto;image-rendering:auto;shape-rendering:auto;text-rendering:auto;enable-background:accumulate"
         inkscape:connector-curvature="0" />
    </g>
    <path
       style="fill:#e6e6e6;stroke:#000000;stroke-width:0.80000001;stroke-linecap:butt;stroke-linejoin:miter;stroke-miterlimit:4;stroke-dasharray:none;stroke-opacity:1"
       d="m -30.018033,115.47813 9.17101,-1.82503 1.603617,-4.81085 5.61266,-1.33635 2.672696,-9.087161 5.8799291,4.276311 7.2162771,22.71791 -9.3544334,8.81989 -18.7088668,-2.67269 z"
       id="path851"
       inkscape:connector-curvature="0"
       sodipodi:nodetypes="cccccccccc" />
    <text
       xml:space="preserve"
       style="font-style:normal;font-variant:normal;font-weight:normal;font-stretch:normal;font-size:12.43448544px;line-height:1.25;font-family:'Linux Libertine O';-inkscape-font-specification:'Linux Libertine O';letter-spacing:0px;word-spacing:0px;fill:#000000;fill-opacity:1;stroke:none;stroke-width:0.31086212"
       x="-24.475775"
       y="128.97382"
       id="text821"><tspan
         sodipodi:role="line"
         id="tspan819"
         x="-24.475775"
         y="128.97382"
         style="stroke-width:0.31086212">TOULOUSE</tspan></text>
    <path
       style="fill:none;stroke:#808080;stroke-width:2;stroke-linecap:butt;stroke-linejoin:miter;stroke-miterlimit:4;stroke-dasharray:none;stroke-opacity:1"
       d="m -5.3453905,96.547854 4.54358194,4.009036 3.20723426,8.55263 2.9399648,12.2944"
       id="path853"
       inkscape:connector-curvature="0" />
    <path
       style="fill:none;stroke:#808080;stroke-width:2;stroke-linecap:butt;stroke-linejoin:miter;stroke-miterlimit:4;stroke-dasharray:none;stroke-opacity:1"
       d="m -0.53453905,101.62597 c 0,0 2.40542575,-2.405422 4.54358185,-3.207231 2.1381564,-0.801807 4.8108515,-0.534538 6.4144682,-1.336347 1.603618,-0.801809 0.801809,-3.207234 3.474504,-5.34539 2.672696,-2.138157 10.423512,-11.225321 15.501633,-13.898015 5.078121,-2.672697 22.18337,-6.949009 24.588795,-8.018087 2.405427,-1.069078 2.939965,-4.009043 6.414471,-5.34539 3.474503,-1.336347 7.750815,-1.870887 9.888971,-3.207234 2.138156,-1.336347 34.477765,-22.18337 37.150465,-23.519717 2.67269,-1.33635 21.44753,-6.843797 28.62908,-10.623561 7.18154,-3.77976 16.63095,-15.119046 19.65476,-15.497022 C 158.75,11.25 167.44345,1.8005951 171.97916,1.0446427 c 4.53572,-0.75595239 12.47322,-3.7797618 12.47322,-3.7797618 l 8.31548,2.26785705 8.31547,-0.75595235 6.80357,-4.5357143 2.26786,-6.8035713 -4.53571,-6.425595"
       id="path855"
       inkscape:connector-curvature="0" />
    <path
       style="fill:#e6e6e6;stroke:#000000;stroke-width:0.80000001;stroke-linecap:butt;stroke-linejoin:miter;stroke-miterlimit:4;stroke-dasharray:none;stroke-opacity:1"
       d="m 201.46131,-17.854167 c -2.07887,-0.94494 -3.77976,-0.94494 -7.18155,-0.566964 -3.40179,0.377976 -3.59077,1.133929 -4.91369,2.834821 -1.32292,1.700893 -2.07887,1.322917 -0.56696,4.913691 1.5119,3.5907737 4.53571,4.9136903 7.37053,4.9136903 2.83482,0 5.85863,-0.1889882 6.80357,-2.6458333 0.94494,-2.456845 1.13393,-5.858631 0.37798,-7.370536 -0.75595,-1.511904 -1.88988,-2.078869 -1.88988,-2.078869 z"
       id="path857"
       inkscape:connector-curvature="0" />
    <path
       style="fill:none;stroke:#000000;stroke-width:1.29999995;stroke-linecap:butt;stroke-linejoin:miter;stroke-miterlimit:4;stroke-dasharray:none;stroke-opacity:1"
       d="m 10.056144,86.682044 9.27536,8.925343"
       id="path859"
       inkscape:connector-curvature="0" />
    <g
       id="g874"
       transform="matrix(0.69795668,0,0,0.69795668,-39.887165,23.633269)">
      <path
         sodipodi:nodetypes="cczcczc"
         inkscape:connector-curvature="0"
         id="rect868"
         d="m 79.138504,83.53183 h 13.844562 c 0,0 1.5875,1.253447 1.5875,4.677217 0,3.42377 -1.5875,4.677216 -1.5875,4.677216 H 79.138504 c 0,0 -1.5875,-1.393763 -1.5875,-4.677216 0,-3.283453 1.5875,-4.677217 1.5875,-4.677217 z"
         style="opacity:1;vector-effect:none;fill:#000000;fill-opacity:1;stroke:#000000;stroke-width:0.5;stroke-linecap:butt;stroke-linejoin:miter;stroke-miterlimit:4;stroke-dasharray:none;stroke-dashoffset:0;stroke-opacity:1" />
      <text
         id="text863"
         y="91.565102"
         x="83.504593"
         style="font-style:normal;font-variant:normal;font-weight:normal;font-stretch:normal;font-size:11.18684483px;line-height:1.25;font-family:'Linux Libertine O';-inkscape-font-specification:'Linux Libertine O';letter-spacing:0px;word-spacing:0px;fill:#ffffff;fill-opacity:1;stroke:none;stroke-width:0.2796711"
         xml:space="preserve"><tspan
           style="fill:#ffffff;stroke-width:0.2796711"
           y="91.565102"
           x="83.504593"
           id="tspan861"
           sodipodi:role="line">3</tspan></text>
    </g>
    <g
       id="g874-3"
       transform="matrix(0.69795668,0,0,0.69795668,-6.6208664,7.8922401)">
      <path
         sodipodi:nodetypes="cczcczc"
         inkscape:connector-curvature="0"
         id="rect868-6"
         d="m 79.138504,83.53183 h 13.844562 c 0,0 1.5875,1.253447 1.5875,4.677217 0,3.42377 -1.5875,4.677216 -1.5875,4.677216 H 79.138504 c 0,0 -1.5875,-1.393763 -1.5875,-4.677216 0,-3.283453 1.5875,-4.677217 1.5875,-4.677217 z"
         style="opacity:1;vector-effect:none;fill:#000000;fill-opacity:1;stroke:#000000;stroke-width:0.5;stroke-linecap:butt;stroke-linejoin:miter;stroke-miterlimit:4;stroke-dasharray:none;stroke-dashoffset:0;stroke-opacity:1" />
      <text
         id="text863-7"
         y="91.565102"
         x="83.459846"
         style="font-style:normal;font-variant:normal;font-weight:normal;font-stretch:normal;font-size:11.18684483px;line-height:1.25;font-family:'Linux Libertine O';-inkscape-font-specification:'Linux Libertine O';letter-spacing:0px;word-spacing:0px;fill:#ffffff;fill-opacity:1;stroke:none;stroke-width:0.2796711"
         xml:space="preserve"><tspan
           style="fill:#ffffff;stroke-width:0.2796711"
           y="91.565102"
           x="83.459846"
           id="tspan861-5"
           sodipodi:role="line">6</tspan></text>
    </g>
    <g
       id="g874-3-3"
       transform="matrix(0.69795668,0,0,0.69795668,10.652817,-0.67199382)">
      <path
         sodipodi:nodetypes="cczcczc"
         inkscape:connector-curvature="0"
         id="rect868-6-5"
         d="m 79.138504,83.53183 h 13.844562 c 0,0 1.5875,1.253447 1.5875,4.677217 0,3.42377 -1.5875,4.677216 -1.5875,4.677216 H 79.138504 c 0,0 -1.5875,-1.393763 -1.5875,-4.677216 0,-3.283453 1.5875,-4.677217 1.5875,-4.677217 z"
         style="opacity:1;vector-effect:none;fill:#000000;fill-opacity:1;stroke:#000000;stroke-width:0.5;stroke-linecap:butt;stroke-linejoin:miter;stroke-miterlimit:4;stroke-dasharray:none;stroke-dashoffset:0;stroke-opacity:1" />
      <text
         id="text863-7-6"
         y="91.565102"
         x="83.459846"
         style="font-style:normal;font-variant:normal;font-weight:normal;font-stretch:normal;font-size:11.18684483px;line-height:1.25;font-family:'Linux Libertine O';-inkscape-font-specification:'Linux Libertine O';letter-spacing:0px;word-spacing:0px;fill:#ffffff;fill-opacity:1;stroke:none;stroke-width:0.2796711"
         xml:space="preserve"><tspan
           style="fill:#ffffff;stroke-width:0.2796711"
           y="91.565102"
           x="83.459846"
           id="tspan861-5-2"
           sodipodi:role="line">7</tspan></text>
    </g>
    <g
       id="g874-3-9"
       transform="matrix(0.69795668,0,0,0.69795668,47.509285,-23.6839)">
      <path
         sodipodi:nodetypes="cczcczc"
         inkscape:connector-curvature="0"
         id="rect868-6-1"
         d="m 79.138504,83.53183 h 13.844562 c 0,0 1.5875,1.253447 1.5875,4.677217 0,3.42377 -1.5875,4.677216 -1.5875,4.677216 H 79.138504 c 0,0 -1.5875,-1.393763 -1.5875,-4.677216 0,-3.283453 1.5875,-4.677217 1.5875,-4.677217 z"
         style="opacity:1;vector-effect:none;fill:#000000;fill-opacity:1;stroke:#000000;stroke-width:0.5;stroke-linecap:butt;stroke-linejoin:miter;stroke-miterlimit:4;stroke-dasharray:none;stroke-dashoffset:0;stroke-opacity:1" />
      <text
         id="text863-7-2"
         y="91.565102"
         x="83.459846"
         style="font-style:normal;font-variant:normal;font-weight:normal;font-stretch:normal;font-size:11.18684483px;line-height:1.25;font-family:'Linux Libertine O';-inkscape-font-specification:'Linux Libertine O';letter-spacing:0px;word-spacing:0px;fill:#ffffff;fill-opacity:1;stroke:none;stroke-width:0.2796711"
         xml:space="preserve"><tspan
           style="fill:#ffffff;stroke-width:0.2796711"
           y="91.565102"
           x="83.459846"
           id="tspan861-5-7"
           sodipodi:role="line">9</tspan></text>
    </g>
    <g
       id="g874-3-0"
       transform="matrix(0.69795668,0,0,0.69795668,96.339428,-50.063402)">
      <path
         sodipodi:nodetypes="cczcczc"
         inkscape:connector-curvature="0"
         id="rect868-6-9"
         d="m 79.138504,83.53183 h 13.844562 c 0,0 1.5875,1.253447 1.5875,4.677217 0,3.42377 -1.5875,4.677216 -1.5875,4.677216 H 79.138504 c 0,0 -1.5875,-1.393763 -1.5875,-4.677216 0,-3.283453 1.5875,-4.677217 1.5875,-4.677217 z"
         style="opacity:1;vector-effect:none;fill:#000000;fill-opacity:1;stroke:#000000;stroke-width:0.5;stroke-linecap:butt;stroke-linejoin:miter;stroke-miterlimit:4;stroke-dasharray:none;stroke-dashoffset:0;stroke-opacity:1" />
      <text
         id="text863-7-3"
         y="91.565102"
         x="80.840202"
         style="font-style:normal;font-variant:normal;font-weight:normal;font-stretch:normal;font-size:11.18684483px;line-height:1.25;font-family:'Linux Libertine O';-inkscape-font-specification:'Linux Libertine O';letter-spacing:0px;word-spacing:0px;fill:#ffffff;fill-opacity:1;stroke:none;stroke-width:0.2796711"
         xml:space="preserve"><tspan
           style="fill:#ffffff;stroke-width:0.2796711"
           y="91.565102"
           x="80.840202"
           id="tspan861-5-6"
           sodipodi:role="line">11</tspan></text>
    </g>
    <text
       xml:space="preserve"
       style="font-style:normal;font-variant:normal;font-weight:normal;font-stretch:normal;font-size:12.43448544px;line-height:1.25;font-family:'Linux Libertine O';-inkscape-font-specification:'Linux Libertine O';letter-spacing:0px;word-spacing:0px;fill:#000000;fill-opacity:1;stroke:none;stroke-width:0.31086212"
       x="162.50311"
       y="-10.286773"
       id="text821-0"><tspan
         sodipodi:role="line"
         id="tspan819-6"
         x="162.50311"
         y="-10.286773"
         style="stroke-width:0.31086212">Albi</tspan></text>
    <text
       xml:space="preserve"
       style="font-style:normal;font-variant:normal;font-weight:normal;font-stretch:normal;font-size:10.58333302px;line-height:1.25;font-family:'Linux Libertine O';-inkscape-font-specification:'Linux Libertine O';letter-spacing:0px;word-spacing:0px;fill:#000000;fill-opacity:1;stroke:none;stroke-width:0.26458332"
       x="-17.212158"
       y="87.460686"
       id="text968"><tspan
         sodipodi:role="line"
         id="tspan966"
         x="-17.212158"
         y="87.460686"
         style="stroke-width:0.26458332">péage</tspan></text>
    <text
       xml:space="preserve"
       style="font-style:normal;font-variant:normal;font-weight:600;font-stretch:normal;font-size:17.63888931px;line-height:1.25;font-family:'Linux Libertine O';-inkscape-font-specification:'Linux Libertine O Semi-Bold';letter-spacing:0px;word-spacing:0px;fill:#666666;fill-opacity:1;stroke:none;stroke-width:0.26330298"
       x="8.6086893"
       y="110.66035"
       id="text972"><tspan
         sodipodi:role="line"
         id="tspan970"
         x="8.6086893"
         y="110.66035"
         style="font-style:normal;font-variant:normal;font-weight:600;font-stretch:normal;font-size:17.63888931px;font-family:'Linux Libertine O';-inkscape-font-specification:'Linux Libertine O Semi-Bold';fill:#666666;stroke-width:0.26330298">7</tspan></text>
    <text
       xml:space="preserve"
       style="font-style:normal;font-variant:normal;font-weight:600;font-stretch:normal;font-size:17.63888931px;line-height:1.25;font-family:'Linux Libertine O';-inkscape-font-specification:'Linux Libertine O Semi-Bold';letter-spacing:0px;word-spacing:0px;fill:#666666;fill-opacity:1;stroke:none;stroke-width:0.26330298"
       x="31.688179"
       y="90.926727"
       id="text976"><tspan
         sodipodi:role="line"
         id="tspan974"
         x="31.688179"
         y="90.926727"
         style="font-style:normal;font-variant:normal;font-weight:600;font-stretch:normal;font-size:17.63888931px;font-family:'Linux Libertine O';-inkscape-font-specification:'Linux Libertine O Semi-Bold';fill:#666666;stroke-width:0.26330298">13</tspan></text>
    <text
       xml:space="preserve"
       style="font-style:normal;font-variant:normal;font-weight:600;font-stretch:normal;font-size:17.63888931px;line-height:1.25;font-family:'Linux Libertine O';-inkscape-font-specification:'Linux Libertine O Semi-Bold';letter-spacing:0px;word-spacing:0px;fill:#666666;fill-opacity:1;stroke:none;stroke-width:0.26330298"
       x="51.795979"
       y="60.014862"
       id="text980"><tspan
         sodipodi:role="line"
         id="tspan978"
         x="51.795979"
         y="60.014862"
         style="font-style:normal;font-variant:normal;font-weight:600;font-stretch:normal;font-size:17.63888931px;font-family:'Linux Libertine O';-inkscape-font-specification:'Linux Libertine O Semi-Bold';fill:#666666;stroke-width:0.26330298">6</tspan></text>
    <text
       xml:space="preserve"
       style="font-style:normal;font-variant:normal;font-weight:600;font-stretch:normal;font-size:17.63888931px;line-height:1.25;font-family:'Linux Libertine O';-inkscape-font-specification:'Linux Libertine O Semi-Bold';letter-spacing:0px;word-spacing:0px;fill:#666666;fill-opacity:1;stroke:none;stroke-width:0.26330298"
       x="86.042847"
       y="61.876701"
       id="text984"><tspan
         sodipodi:role="line"
         id="tspan982"
         x="86.042847"
         y="61.876701"
         style="font-style:normal;font-variant:normal;font-weight:600;font-stretch:normal;font-size:17.63888931px;font-family:'Linux Libertine O';-inkscape-font-specification:'Linux Libertine O Semi-Bold';fill:#666666;stroke-width:0.26330298">16</tspan></text>
    <text
       xml:space="preserve"
       style="font-style:normal;font-variant:normal;font-weight:600;font-stretch:normal;font-size:17.63888931px;line-height:1.25;font-family:'Linux Libertine O';-inkscape-font-specification:'Linux Libertine O Semi-Bold';letter-spacing:0px;word-spacing:0px;fill:#666666;fill-opacity:1;stroke:none;stroke-width:0.26330298"
       x="133.71846"
       y="42.528114"
       id="text988"><tspan
         sodipodi:role="line"
         id="tspan986"
         x="133.71846"
         y="42.528114"
         style="font-style:normal;font-variant:normal;font-weight:600;font-stretch:normal;font-size:17.63888931px;font-family:'Linux Libertine O';-inkscape-font-specification:'Linux Libertine O Semi-Bold';fill:#666666;stroke-width:0.26330298">16</tspan></text>
    <text
       xml:space="preserve"
       style="font-style:normal;font-variant:normal;font-weight:normal;font-stretch:normal;font-size:5.63297701px;line-height:1.25;font-family:'Linux Libertine O';-inkscape-font-specification:'Linux Libertine O';letter-spacing:0px;word-spacing:0px;fill:#000000;fill-opacity:1;stroke:none;stroke-width:0.14082442"
       x="42.390648"
       y="86.997307"
       id="text992"
       transform="rotate(-32.895459)"><tspan
         sodipodi:role="line"
         id="tspan990"
         x="42.390648"
         y="86.997307"
         style="stroke-width:0.14082442">A-68</tspan></text>
    <text
       xml:space="preserve"
       style="font-style:normal;font-variant:normal;font-weight:normal;font-stretch:normal;font-size:10.58333302px;line-height:1.25;font-family:'Linux Libertine O';-inkscape-font-specification:'Linux Libertine O';letter-spacing:0px;word-spacing:0px;fill:#000000;fill-opacity:1;stroke:none;stroke-width:0.26458332"
       x="130.21371"
       y="90.079933"
       id="text996"><tspan
         sodipodi:role="line"
         x="130.21371"
         y="90.079933"
         style="stroke-width:0.26458332"
         id="tspan998">Légende:</tspan></text>
    <g
       id="g874-3-0-2"
       transform="matrix(0.69795668,0,0,0.69795668,76.508029,40.861691)">
      <path
         sodipodi:nodetypes="cczcczc"
         inkscape:connector-curvature="0"
         id="rect868-6-9-6"
         d="m 79.138504,83.53183 h 13.844562 c 0,0 1.5875,1.253447 1.5875,4.677217 0,3.42377 -1.5875,4.677216 -1.5875,4.677216 H 79.138504 c 0,0 -1.5875,-1.393763 -1.5875,-4.677216 0,-3.283453 1.5875,-4.677217 1.5875,-4.677217 z"
         style="opacity:1;vector-effect:none;fill:#000000;fill-opacity:1;stroke:#000000;stroke-width:0.5;stroke-linecap:butt;stroke-linejoin:miter;stroke-miterlimit:4;stroke-dasharray:none;stroke-dashoffset:0;stroke-opacity:1" />
      <text
         id="text863-7-3-1"
         y="91.565102"
         x="80.840202"
         style="font-style:normal;font-variant:normal;font-weight:normal;font-stretch:normal;font-size:11.18684483px;line-height:1.25;font-family:'Linux Libertine O';-inkscape-font-specification:'Linux Libertine O';letter-spacing:0px;word-spacing:0px;fill:#ffffff;fill-opacity:1;stroke:none;stroke-width:0.2796711"
         xml:space="preserve"><tspan
           style="fill:#ffffff;stroke-width:0.2796711"
           y="91.565102"
           x="80.840202"
           id="tspan861-5-6-8"
           sodipodi:role="line">11</tspan></text>
    </g>
    <text
       xml:space="preserve"
       style="font-style:normal;font-variant:normal;font-weight:600;font-stretch:normal;font-size:12.22474766px;line-height:1.25;font-family:'Linux Libertine O';-inkscape-font-specification:'Linux Libertine O Semi-Bold';letter-spacing:0px;word-spacing:0px;fill:#666666;fill-opacity:1;stroke:none;stroke-width:0.18248385"
       x="131.28012"
       y="120.70036"
       id="text988-7"><tspan
         sodipodi:role="line"
         id="tspan986-9"
         x="131.28012"
         y="120.70036"
         style="font-style:normal;font-variant:normal;font-weight:600;font-stretch:normal;font-size:12.22474766px;font-family:'Linux Libertine O';-inkscape-font-specification:'Linux Libertine O Semi-Bold';fill:#666666;stroke-width:0.18248385">16</tspan></text>
    <g
       id="g849-2"
       transform="matrix(1.4612542,0,0,1.4612542,177.63728,-19.229723)">
      <text
         transform="rotate(-90)"
         id="text817-0"
         y="-23.689476"
         x="-107.67544"
         style="font-style:normal;font-variant:normal;font-weight:normal;font-stretch:normal;font-size:10.58333302px;line-height:1.25;font-family:'Linux Libertine O';-inkscape-font-specification:'Linux Libertine O';letter-spacing:0px;word-spacing:0px;fill:#000000;fill-opacity:1;stroke:none;stroke-width:0.26458332;stroke-linejoin:miter"
         xml:space="preserve"><tspan
           style="stroke-width:0.26458332;stroke-linejoin:miter"
           y="-23.689476"
           x="-107.67544"
           id="tspan815-2"
           sodipodi:role="line">✈</tspan></text>
      <path
         id="rect823-3"
         transform="scale(0.26458333)"
         d="m -117.69727,376.58398 v 0.94532 12.75781 h 1.89063 v -11.8125 h 9.27148 v -1.89063 z m 15.98243,0 v 1.89063 h 9.271481 v 11.8125 h 1.890625 v -13.70313 z m -15.98243,20.66797 v 6.47461 h 8.03711 v -1.88867 h -6.14648 v -4.58594 z m 25.253911,0 v 4.58594 h -6.146485 v 1.88867 h 8.03711 v -6.47461 z"
         style="color:#000000;font-style:normal;font-variant:normal;font-weight:normal;font-stretch:normal;font-size:medium;line-height:normal;font-family:sans-serif;font-variant-ligatures:normal;font-variant-position:normal;font-variant-caps:normal;font-variant-numeric:normal;font-variant-alternates:normal;font-feature-settings:normal;text-indent:0;text-align:start;text-decoration:none;text-decoration-line:none;text-decoration-style:solid;text-decoration-color:#000000;letter-spacing:normal;word-spacing:normal;text-transform:none;writing-mode:lr-tb;direction:ltr;text-orientation:mixed;dominant-baseline:auto;baseline-shift:baseline;text-anchor:start;white-space:normal;shape-padding:0;clip-rule:nonzero;display:inline;overflow:visible;visibility:visible;opacity:1;isolation:auto;mix-blend-mode:normal;color-interpolation:sRGB;color-interpolation-filters:linearRGB;solid-color:#000000;solid-opacity:1;vector-effect:none;fill:#000000;fill-opacity:1;fill-rule:nonzero;stroke:none;stroke-width:1.88976383;stroke-linecap:butt;stroke-linejoin:miter;stroke-miterlimit:4;stroke-dasharray:none;stroke-dashoffset:0;stroke-opacity:1;color-rendering:auto;image-rendering:auto;shape-rendering:auto;text-rendering:auto;enable-background:accumulate"
         inkscape:connector-curvature="0" />
    </g>
    <text
       xml:space="preserve"
       style="font-style:normal;font-variant:normal;font-weight:normal;font-stretch:normal;font-size:10.58333302px;line-height:1.25;font-family:'Linux Libertine O';-inkscape-font-specification:'Linux Libertine O';letter-spacing:0px;word-spacing:0px;fill:#000000;fill-opacity:1;stroke:none;stroke-width:0.26458332"
       x="150.02403"
       y="105.44167"
       id="text1070"><tspan
         sodipodi:role="line"
         id="tspan1068"
         x="150.02403"
         y="105.44167"
         style="stroke-width:0.26458332">Sortie d'autoroute</tspan></text>
    <text
       xml:space="preserve"
       style="font-style:normal;font-variant:normal;font-weight:normal;font-stretch:normal;font-size:10.58333302px;line-height:1.25;font-family:'Linux Libertine O';-inkscape-font-specification:'Linux Libertine O';letter-spacing:0px;word-spacing:0px;fill:#000000;fill-opacity:1;stroke:none;stroke-width:0.26458332"
       x="150.15633"
       y="120.89433"
       id="text1074"><tspan
         sodipodi:role="line"
         id="tspan1072"
         x="150.15633"
         y="120.89433"
         style="stroke-width:0.26458332">Kilomètres</tspan></text>
    <text
       xml:space="preserve"
       style="font-style:normal;font-variant:normal;font-weight:normal;font-stretch:normal;font-size:10.58333302px;line-height:1.25;font-family:'Linux Libertine O';-inkscape-font-specification:'Linux Libertine O';letter-spacing:0px;word-spacing:0px;fill:#000000;fill-opacity:1;stroke:none;stroke-width:0.26458332"
       x="150.28333"
       y="135.10434"
       id="text1078"><tspan
         sodipodi:role="line"
         id="tspan1076"
         x="150.28333"
         y="135.10434"
         style="stroke-width:0.26458332">Aéroport</tspan></text>
    <rect
       style="opacity:1;vector-effect:none;fill:none;fill-opacity:1;stroke:#000000;stroke-width:0.5;stroke-linecap:butt;stroke-linejoin:miter;stroke-miterlimit:4;stroke-dasharray:none;stroke-dashoffset:0;stroke-opacity:1"
       id="rect1080"
       width="119.73675"
       height="68.474457"
       x="123.85269"
       y="76.609543" />
  </g>
</svg>
