<?xml version="1.0" encoding="UTF-8" standalone="no"?>
<!-- Created with Inkscape (http://www.inkscape.org/) -->

<svg
   xmlns:dc="http://purl.org/dc/elements/1.1/"
   xmlns:cc="http://creativecommons.org/ns#"
   xmlns:rdf="http://www.w3.org/1999/02/22-rdf-syntax-ns#"
   xmlns:svg="http://www.w3.org/2000/svg"
   xmlns="http://www.w3.org/2000/svg"
   xmlns:sodipodi="http://sodipodi.sourceforge.net/DTD/sodipodi-0.dtd"
   xmlns:inkscape="http://www.inkscape.org/namespaces/inkscape"
   width="151.67455mm"
   height="120.93855mm"
   viewBox="0 0 151.67455 120.93855"
   version="1.1"
   id="svg8"
   inkscape:version="0.92.2 (5c3e80d, 2017-08-06)"
   sodipodi:docname="figure-01.svg">
  <defs
     id="defs2" />
  <sodipodi:namedview
     id="base"
     pagecolor="#ffffff"
     bordercolor="#666666"
     borderopacity="1.0"
     inkscape:pageopacity="0.0"
     inkscape:pageshadow="2"
     inkscape:zoom="0.98994949"
     inkscape:cx="334.33816"
     inkscape:cy="257.30762"
     inkscape:document-units="mm"
     inkscape:current-layer="layer1"
     showgrid="false"
     showborder="false"
     inkscape:snap-object-midpoints="true"
     inkscape:snap-center="true"
     inkscape:snap-global="false"
     fit-margin-top="0"
     fit-margin-left="0"
     fit-margin-right="0"
     fit-margin-bottom="0"
     inkscape:window-width="1366"
     inkscape:window-height="713"
     inkscape:window-x="0"
     inkscape:window-y="27"
     inkscape:window-maximized="1" />
  <metadata
     id="metadata5">
    <rdf:RDF>
      <cc:Work
         rdf:about="">
        <dc:format>image/svg+xml</dc:format>
        <dc:type
           rdf:resource="http://purl.org/dc/dcmitype/StillImage" />
        <dc:title></dc:title>
      </cc:Work>
    </rdf:RDF>
  </metadata>
  <g
     inkscape:label="Layer 1"
     inkscape:groupmode="layer"
     id="layer1"
     transform="translate(-23.319718,-66.680936)">
    <circle
       style="opacity:1;vector-effect:none;fill:none;fill-opacity:1;stroke:#000000;stroke-width:0.40000001;stroke-linecap:butt;stroke-linejoin:miter;stroke-miterlimit:4;stroke-dasharray:none;stroke-dashoffset:0;stroke-opacity:1"
       id="path10"
       cx="89.268021"
       cy="142.25095"
       r="37.01683" />
    <rect
       style="opacity:1;vector-effect:none;fill:#000000;fill-opacity:0.2745098;stroke:#000000;stroke-width:0.40000001;stroke-linecap:butt;stroke-linejoin:miter;stroke-miterlimit:4;stroke-dasharray:none;stroke-dashoffset:0;stroke-opacity:1"
       id="rect12"
       width="25.925142"
       height="25.925142"
       x="89.268021"
       y="116.32581" />
    <path
       style="fill:none;stroke:#000000;stroke-width:0.40000001;stroke-linecap:butt;stroke-linejoin:miter;stroke-miterlimit:4;stroke-dasharray:none;stroke-opacity:1"
       d="M 89.268018,142.25096 H 149.48958"
       id="path17"
       inkscape:connector-curvature="0" />
    <rect
       style="opacity:1;vector-effect:none;fill:#000000;fill-opacity:0.2745098;stroke:#000000;stroke-width:0.40000001;stroke-linecap:butt;stroke-linejoin:miter;stroke-miterlimit:4;stroke-dasharray:none;stroke-dashoffset:0;stroke-opacity:1"
       id="rect19"
       width="45.491009"
       height="45.491009"
       x="139.83571"
       y="-2.4147112"
       inkscape:transform-center-x="-31.705497"
       inkscape:transform-center-y="-5.4293214"
       transform="rotate(35.282798)" />
    <g
       id="g832"
       transform="matrix(0.28328928,-0.28328928,0.28328928,0.28328928,-1.2934899,139.06394)"
       style="stroke-width:0.99842364;stroke-miterlimit:4;stroke-dasharray:none">
      <path
         inkscape:connector-curvature="0"
         id="path826"
         d="m 147.41071,165.46428 h 13.60715"
         style="fill:none;stroke:#000000;stroke-width:0.99842364;stroke-linecap:butt;stroke-linejoin:miter;stroke-miterlimit:4;stroke-dasharray:none;stroke-opacity:1" />
      <path
         style="fill:none;stroke:#000000;stroke-width:0.99842364;stroke-linecap:butt;stroke-linejoin:miter;stroke-miterlimit:4;stroke-dasharray:none;stroke-opacity:1"
         d="m 154.21428,158.6607 v 13.60715"
         id="path828"
         inkscape:connector-curvature="0" />
    </g>
    <g
       id="g832-3"
       transform="matrix(0.28328927,-0.28328927,0.28328927,0.28328927,-1.1701368,112.95139)"
       style="stroke-width:0.9984237;stroke-miterlimit:4;stroke-dasharray:none">
      <path
         inkscape:connector-curvature="0"
         id="path826-6"
         d="m 147.41071,165.46428 h 13.60715"
         style="fill:none;stroke:#000000;stroke-width:0.9984237;stroke-linecap:butt;stroke-linejoin:miter;stroke-miterlimit:4;stroke-dasharray:none;stroke-opacity:1" />
      <path
         style="fill:none;stroke:#000000;stroke-width:0.9984237;stroke-linecap:butt;stroke-linejoin:miter;stroke-miterlimit:4;stroke-dasharray:none;stroke-opacity:1"
         d="m 154.21428,158.6607 v 13.60715"
         id="path828-7"
         inkscape:connector-curvature="0" />
    </g>
    <g
       id="g832-5"
       transform="matrix(0.28328927,-0.28328927,0.28328927,0.28328927,24.532244,139.03175)"
       style="stroke-width:0.9984237;stroke-miterlimit:4;stroke-dasharray:none">
      <path
         inkscape:connector-curvature="0"
         id="path826-3"
         d="m 147.41071,165.46428 h 13.60715"
         style="fill:none;stroke:#000000;stroke-width:0.9984237;stroke-linecap:butt;stroke-linejoin:miter;stroke-miterlimit:4;stroke-dasharray:none;stroke-opacity:1" />
      <path
         style="fill:none;stroke:#000000;stroke-width:0.9984237;stroke-linecap:butt;stroke-linejoin:miter;stroke-miterlimit:4;stroke-dasharray:none;stroke-opacity:1"
         d="m 154.21428,158.6607 v 13.60715"
         id="path828-5"
         inkscape:connector-curvature="0" />
    </g>
    <g
       id="g832-6"
       transform="matrix(0.28328927,-0.28328927,0.28328927,0.28328927,35.493554,139.03175)"
       style="stroke-width:0.9984237;stroke-miterlimit:4;stroke-dasharray:none">
      <path
         inkscape:connector-curvature="0"
         id="path826-2"
         d="m 147.41071,165.46428 h 13.60715"
         style="fill:none;stroke:#000000;stroke-width:0.9984237;stroke-linecap:butt;stroke-linejoin:miter;stroke-miterlimit:4;stroke-dasharray:none;stroke-opacity:1" />
      <path
         style="fill:none;stroke:#000000;stroke-width:0.9984237;stroke-linecap:butt;stroke-linejoin:miter;stroke-miterlimit:4;stroke-dasharray:none;stroke-opacity:1"
         d="m 154.21428,158.6607 v 13.60715"
         id="path828-9"
         inkscape:connector-curvature="0" />
    </g>
    <g
       id="g832-1"
       transform="matrix(0.28328927,-0.28328927,0.28328927,0.28328927,24.91022,112.7624)"
       style="stroke-width:0.9984237;stroke-miterlimit:4;stroke-dasharray:none">
      <path
         inkscape:connector-curvature="0"
         id="path826-27"
         d="m 147.41071,165.46428 h 13.60715"
         style="fill:none;stroke:#000000;stroke-width:0.9984237;stroke-linecap:butt;stroke-linejoin:miter;stroke-miterlimit:4;stroke-dasharray:none;stroke-opacity:1" />
      <path
         style="fill:none;stroke:#000000;stroke-width:0.9984237;stroke-linecap:butt;stroke-linejoin:miter;stroke-miterlimit:4;stroke-dasharray:none;stroke-opacity:1"
         d="m 154.21428,158.6607 v 13.60715"
         id="path828-0"
         inkscape:connector-curvature="0" />
    </g>
    <g
       id="g832-9"
       transform="matrix(0.28328927,-0.28328927,0.28328927,0.28328927,62.140875,101.80109)"
       style="stroke-width:0.9984237;stroke-miterlimit:4;stroke-dasharray:none">
      <path
         inkscape:connector-curvature="0"
         id="path826-36"
         d="m 147.41071,165.46428 h 13.60715"
         style="fill:none;stroke:#000000;stroke-width:0.9984237;stroke-linecap:butt;stroke-linejoin:miter;stroke-miterlimit:4;stroke-dasharray:none;stroke-opacity:1" />
      <path
         style="fill:none;stroke:#000000;stroke-width:0.9984237;stroke-linecap:butt;stroke-linejoin:miter;stroke-miterlimit:4;stroke-dasharray:none;stroke-opacity:1"
         d="m 154.21428,158.6607 v 13.60715"
         id="path828-06"
         inkscape:connector-curvature="0" />
    </g>
    <g
       id="g832-2"
       transform="matrix(0.28328927,-0.28328927,0.28328927,0.28328927,25.099208,75.626241)"
       style="stroke-width:0.9984237;stroke-miterlimit:4;stroke-dasharray:none">
      <path
         inkscape:connector-curvature="0"
         id="path826-61"
         d="m 147.41071,165.46428 h 13.60715"
         style="fill:none;stroke:#000000;stroke-width:0.9984237;stroke-linecap:butt;stroke-linejoin:miter;stroke-miterlimit:4;stroke-dasharray:none;stroke-opacity:1" />
      <path
         style="fill:none;stroke:#000000;stroke-width:0.9984237;stroke-linecap:butt;stroke-linejoin:miter;stroke-miterlimit:4;stroke-dasharray:none;stroke-opacity:1"
         d="m 154.21428,158.6607 v 13.60715"
         id="path828-8"
         inkscape:connector-curvature="0" />
    </g>
    <text
       xml:space="preserve"
       style="font-style:normal;font-variant:normal;font-weight:normal;font-stretch:normal;font-size:6.28814888px;line-height:1.25;font-family:'Linux Libertine O';-inkscape-font-specification:'Linux Libertine O';letter-spacing:0px;word-spacing:0px;fill:#000000;fill-opacity:1;stroke:none;stroke-width:0.15720372"
       x="84.677399"
       y="149.78685"
       id="text907"><tspan
         sodipodi:role="line"
         id="tspan905"
         x="84.677399"
         y="149.78685"
         style="stroke-width:0.15720372">A</tspan></text>
    <text
       xml:space="preserve"
       style="font-style:normal;font-variant:normal;font-weight:normal;font-stretch:normal;font-size:6.28814888px;line-height:1.25;font-family:'Linux Libertine O';-inkscape-font-specification:'Linux Libertine O';letter-spacing:0px;word-spacing:0px;fill:#000000;fill-opacity:1;stroke:none;stroke-width:0.15720372"
       x="113.48502"
       y="149.00597"
       id="text907-7"><tspan
         sodipodi:role="line"
         id="tspan905-9"
         x="113.48502"
         y="149.00597"
         style="stroke-width:0.15720372">B</tspan></text>
    <text
       xml:space="preserve"
       style="font-style:normal;font-variant:normal;font-weight:normal;font-stretch:normal;font-size:6.28814888px;line-height:1.25;font-family:'Linux Libertine O';-inkscape-font-specification:'Linux Libertine O';letter-spacing:0px;word-spacing:0px;fill:#000000;fill-opacity:1;stroke:none;stroke-width:0.15720372"
       x="83.05793"
       y="114.98811"
       id="text907-2"><tspan
         sodipodi:role="line"
         id="tspan905-0"
         x="83.05793"
         y="114.98811"
         style="stroke-width:0.15720372">D</tspan></text>
    <text
       xml:space="preserve"
       style="font-style:normal;font-variant:normal;font-weight:normal;font-stretch:normal;font-size:6.28814888px;line-height:1.25;font-family:'Linux Libertine O';-inkscape-font-specification:'Linux Libertine O';letter-spacing:0px;word-spacing:0px;fill:#000000;fill-opacity:1;stroke:none;stroke-width:0.15720372"
       x="118.20972"
       y="114.23215"
       id="text907-23"><tspan
         sodipodi:role="line"
         id="tspan905-7"
         x="118.20972"
         y="114.23215"
         style="stroke-width:0.15720372">C</tspan></text>
    <text
       xml:space="preserve"
       style="font-style:normal;font-variant:normal;font-weight:normal;font-stretch:normal;font-size:6.28814888px;line-height:1.25;font-family:'Linux Libertine O';-inkscape-font-specification:'Linux Libertine O';letter-spacing:0px;word-spacing:0px;fill:#000000;fill-opacity:1;stroke:none;stroke-width:0.15720372"
       x="128.60406"
       y="147.87204"
       id="text907-5"><tspan
         sodipodi:role="line"
         id="tspan905-92"
         x="128.60406"
         y="147.87204"
         style="stroke-width:0.15720372">E</tspan></text>
    <text
       xml:space="preserve"
       style="font-style:normal;font-variant:normal;font-weight:normal;font-stretch:normal;font-size:6.28814888px;line-height:1.25;font-family:'Linux Libertine O';-inkscape-font-specification:'Linux Libertine O';letter-spacing:0px;word-spacing:0px;fill:#000000;fill-opacity:1;stroke:none;stroke-width:0.15720372"
       x="152.79454"
       y="100.814"
       id="text907-28"><tspan
         sodipodi:role="line"
         id="tspan905-97"
         x="152.79454"
         y="100.814"
         style="stroke-width:0.15720372">F</tspan></text>
    <text
       xml:space="preserve"
       style="font-style:normal;font-variant:normal;font-weight:normal;font-stretch:normal;font-size:6.28814888px;line-height:1.25;font-family:'Linux Libertine O';-inkscape-font-specification:'Linux Libertine O';letter-spacing:0px;word-spacing:0px;fill:#000000;fill-opacity:1;stroke:none;stroke-width:0.15720372"
       x="117.45377"
       y="77.379478"
       id="text907-3"><tspan
         sodipodi:role="line"
         id="tspan905-6"
         x="117.45377"
         y="77.379478"
         style="stroke-width:0.15720372">G</tspan></text>
  </g>
</svg>
