<?xml version="1.0" encoding="UTF-8" standalone="no"?>
<!-- Created with Inkscape (http://www.inkscape.org/) -->

<svg
   xmlns:dc="http://purl.org/dc/elements/1.1/"
   xmlns:cc="http://creativecommons.org/ns#"
   xmlns:rdf="http://www.w3.org/1999/02/22-rdf-syntax-ns#"
   xmlns:svg="http://www.w3.org/2000/svg"
   xmlns="http://www.w3.org/2000/svg"
   xmlns:xlink="http://www.w3.org/1999/xlink"
   xmlns:sodipodi="http://sodipodi.sourceforge.net/DTD/sodipodi-0.dtd"
   xmlns:inkscape="http://www.inkscape.org/namespaces/inkscape"
   width="130.04962mm"
   height="83.080772mm"
   viewBox="0 0 130.04962 83.080772"
   version="1.1"
   id="svg924"
   inkscape:version="0.92.2 (5c3e80d, 2017-08-06)"
   sodipodi:docname="exo-05-figure-02.svg">
  <defs
     id="defs918">
    <linearGradient
       inkscape:collect="always"
       id="linearGradient2767">
      <stop
         style="stop-color:#f5cc85;stop-opacity:1"
         offset="0"
         id="stop2763" />
      <stop
         style="stop-color:#c05d2a;stop-opacity:1"
         offset="1"
         id="stop2765" />
    </linearGradient>
    <marker
       inkscape:isstock="true"
       style="overflow:visible"
       id="marker2515"
       refX="0"
       refY="0"
       orient="auto"
       inkscape:stockid="Arrow2Mend">
      <path
         transform="scale(-0.6)"
         d="M 8.7185878,4.0337352 -2.2072895,0.01601326 8.7185884,-4.0017078 c -1.7454984,2.3720609 -1.7354408,5.6174519 -6e-7,8.035443 z"
         style="fill:#000000;fill-opacity:1;fill-rule:evenodd;stroke:#000000;stroke-width:0.625;stroke-linejoin:round;stroke-opacity:1"
         id="path2513"
         inkscape:connector-curvature="0" />
    </marker>
    <marker
       inkscape:stockid="Arrow2Mend"
       orient="auto"
       refY="0"
       refX="0"
       id="Arrow2Mend"
       style="overflow:visible"
       inkscape:isstock="true"
       inkscape:collect="always">
      <path
         id="path1902"
         style="fill:#000000;fill-opacity:1;fill-rule:evenodd;stroke:#000000;stroke-width:0.625;stroke-linejoin:round;stroke-opacity:1"
         d="M 8.7185878,4.0337352 -2.2072895,0.01601326 8.7185884,-4.0017078 c -1.7454984,2.3720609 -1.7354408,5.6174519 -6e-7,8.035443 z"
         transform="scale(-0.6)"
         inkscape:connector-curvature="0" />
    </marker>
    <radialGradient
       inkscape:collect="always"
       xlink:href="#linearGradient2767"
       id="radialGradient2771"
       gradientUnits="userSpaceOnUse"
       cx="60.948658"
       cy="164.23587"
       fx="60.948658"
       fy="164.23587"
       r="9.0879469"
       gradientTransform="matrix(0.36573826,0,0,0.36573826,146.22137,92.661257)" />
  </defs>
  <sodipodi:namedview
     id="base"
     pagecolor="#ffffff"
     bordercolor="#666666"
     borderopacity="1.0"
     inkscape:pageopacity="0.0"
     inkscape:pageshadow="2"
     inkscape:zoom="1.4"
     inkscape:cx="299.97854"
     inkscape:cy="131.01947"
     inkscape:document-units="mm"
     inkscape:current-layer="layer1"
     showgrid="false"
     fit-margin-top="0"
     fit-margin-left="0"
     fit-margin-right="0"
     fit-margin-bottom="0"
     inkscape:window-width="1366"
     inkscape:window-height="713"
     inkscape:window-x="0"
     inkscape:window-y="27"
     inkscape:window-maximized="1"
     inkscape:snap-global="false" />
  <metadata
     id="metadata921">
    <rdf:RDF>
      <cc:Work
         rdf:about="">
        <dc:format>image/svg+xml</dc:format>
        <dc:type
           rdf:resource="http://purl.org/dc/dcmitype/StillImage" />
        <dc:title></dc:title>
      </cc:Work>
    </rdf:RDF>
  </metadata>
  <g
     inkscape:label="Layer 1"
     inkscape:groupmode="layer"
     id="layer1"
     transform="translate(-64.545499,-136.73598)">
    <g
       id="g2459">
      <circle
         r="0.8018086"
         cy="145.78839"
         cx="82.51342"
         id="path1536"
         style="opacity:1;vector-effect:none;fill:#000000;fill-opacity:1;stroke:none;stroke-width:0.40000001;stroke-linecap:butt;stroke-linejoin:miter;stroke-miterlimit:4;stroke-dasharray:none;stroke-dashoffset:0;stroke-opacity:1" />
      <circle
         r="0.8018086"
         cy="154.00694"
         cx="82.51342"
         id="path1536-3"
         style="opacity:1;vector-effect:none;fill:#000000;fill-opacity:1;stroke:none;stroke-width:0.40000001;stroke-linecap:butt;stroke-linejoin:miter;stroke-miterlimit:4;stroke-dasharray:none;stroke-dashoffset:0;stroke-opacity:1" />
      <circle
         r="0.8018086"
         cy="162.22548"
         cx="82.51342"
         id="path1536-6"
         style="opacity:1;vector-effect:none;fill:#000000;fill-opacity:1;stroke:none;stroke-width:0.40000001;stroke-linecap:butt;stroke-linejoin:miter;stroke-miterlimit:4;stroke-dasharray:none;stroke-dashoffset:0;stroke-opacity:1" />
      <circle
         r="0.8018086"
         cy="170.444"
         cx="82.51342"
         id="path1536-7"
         style="opacity:1;vector-effect:none;fill:#000000;fill-opacity:1;stroke:none;stroke-width:0.40000001;stroke-linecap:butt;stroke-linejoin:miter;stroke-miterlimit:4;stroke-dasharray:none;stroke-dashoffset:0;stroke-opacity:1" />
      <circle
         r="0.8018086"
         cy="186.88109"
         cx="82.51342"
         id="path1536-5"
         style="opacity:1;vector-effect:none;fill:#000000;fill-opacity:1;stroke:none;stroke-width:0.40000001;stroke-linecap:butt;stroke-linejoin:miter;stroke-miterlimit:4;stroke-dasharray:none;stroke-dashoffset:0;stroke-opacity:1" />
      <circle
         r="0.8018086"
         cy="195.09961"
         cx="82.51342"
         id="path1536-3-3"
         style="opacity:1;vector-effect:none;fill:#000000;fill-opacity:1;stroke:none;stroke-width:0.40000001;stroke-linecap:butt;stroke-linejoin:miter;stroke-miterlimit:4;stroke-dasharray:none;stroke-dashoffset:0;stroke-opacity:1" />
      <circle
         r="0.8018086"
         cy="203.31816"
         cx="82.51342"
         id="path1536-6-5"
         style="opacity:1;vector-effect:none;fill:#000000;fill-opacity:1;stroke:none;stroke-width:0.40000001;stroke-linecap:butt;stroke-linejoin:miter;stroke-miterlimit:4;stroke-dasharray:none;stroke-dashoffset:0;stroke-opacity:1" />
      <circle
         r="0.8018086"
         cy="211.5367"
         cx="82.51342"
         id="path1536-7-6"
         style="opacity:1;vector-effect:none;fill:#000000;fill-opacity:1;stroke:none;stroke-width:0.40000001;stroke-linecap:butt;stroke-linejoin:miter;stroke-miterlimit:4;stroke-dasharray:none;stroke-dashoffset:0;stroke-opacity:1" />
      <circle
         r="0.8018086"
         cy="178.66254"
         cx="82.51342"
         id="path1536-5-2"
         style="opacity:1;vector-effect:none;fill:#000000;fill-opacity:1;stroke:none;stroke-width:0.40000001;stroke-linecap:butt;stroke-linejoin:miter;stroke-miterlimit:4;stroke-dasharray:none;stroke-dashoffset:0;stroke-opacity:1" />
      <circle
         r="0.8018086"
         cy="145.78839"
         cx="91.955322"
         id="path1536-1"
         style="opacity:1;vector-effect:none;fill:#000000;fill-opacity:1;stroke:none;stroke-width:0.40000001;stroke-linecap:butt;stroke-linejoin:miter;stroke-miterlimit:4;stroke-dasharray:none;stroke-dashoffset:0;stroke-opacity:1" />
      <circle
         r="0.8018086"
         cy="154.00694"
         cx="91.955322"
         id="path1536-3-2"
         style="opacity:1;vector-effect:none;fill:#000000;fill-opacity:1;stroke:none;stroke-width:0.40000001;stroke-linecap:butt;stroke-linejoin:miter;stroke-miterlimit:4;stroke-dasharray:none;stroke-dashoffset:0;stroke-opacity:1" />
      <circle
         r="0.8018086"
         cy="162.22548"
         cx="91.955322"
         id="path1536-6-7"
         style="opacity:1;vector-effect:none;fill:#000000;fill-opacity:1;stroke:none;stroke-width:0.40000001;stroke-linecap:butt;stroke-linejoin:miter;stroke-miterlimit:4;stroke-dasharray:none;stroke-dashoffset:0;stroke-opacity:1" />
      <circle
         r="0.8018086"
         cy="170.444"
         cx="91.955322"
         id="path1536-7-0"
         style="opacity:1;vector-effect:none;fill:#000000;fill-opacity:1;stroke:none;stroke-width:0.40000001;stroke-linecap:butt;stroke-linejoin:miter;stroke-miterlimit:4;stroke-dasharray:none;stroke-dashoffset:0;stroke-opacity:1" />
      <circle
         r="0.8018086"
         cy="186.88109"
         cx="91.955322"
         id="path1536-5-9"
         style="opacity:1;vector-effect:none;fill:#000000;fill-opacity:1;stroke:none;stroke-width:0.40000001;stroke-linecap:butt;stroke-linejoin:miter;stroke-miterlimit:4;stroke-dasharray:none;stroke-dashoffset:0;stroke-opacity:1" />
      <circle
         r="0.8018086"
         cy="195.09961"
         cx="91.955322"
         id="path1536-3-3-3"
         style="opacity:1;vector-effect:none;fill:#000000;fill-opacity:1;stroke:none;stroke-width:0.40000001;stroke-linecap:butt;stroke-linejoin:miter;stroke-miterlimit:4;stroke-dasharray:none;stroke-dashoffset:0;stroke-opacity:1" />
      <circle
         r="0.8018086"
         cy="203.31816"
         cx="91.955322"
         id="path1536-6-5-6"
         style="opacity:1;vector-effect:none;fill:#000000;fill-opacity:1;stroke:none;stroke-width:0.40000001;stroke-linecap:butt;stroke-linejoin:miter;stroke-miterlimit:4;stroke-dasharray:none;stroke-dashoffset:0;stroke-opacity:1" />
      <circle
         r="0.8018086"
         cy="211.5367"
         cx="91.955322"
         id="path1536-7-6-0"
         style="opacity:1;vector-effect:none;fill:#000000;fill-opacity:1;stroke:none;stroke-width:0.40000001;stroke-linecap:butt;stroke-linejoin:miter;stroke-miterlimit:4;stroke-dasharray:none;stroke-dashoffset:0;stroke-opacity:1" />
      <circle
         r="0.8018086"
         cy="178.66254"
         cx="91.955322"
         id="path1536-5-2-6"
         style="opacity:1;vector-effect:none;fill:#000000;fill-opacity:1;stroke:none;stroke-width:0.40000001;stroke-linecap:butt;stroke-linejoin:miter;stroke-miterlimit:4;stroke-dasharray:none;stroke-dashoffset:0;stroke-opacity:1" />
      <circle
         r="0.8018086"
         cy="145.78839"
         cx="101.39722"
         id="path1536-61"
         style="opacity:1;vector-effect:none;fill:#000000;fill-opacity:1;stroke:none;stroke-width:0.40000001;stroke-linecap:butt;stroke-linejoin:miter;stroke-miterlimit:4;stroke-dasharray:none;stroke-dashoffset:0;stroke-opacity:1" />
      <circle
         r="0.8018086"
         cy="154.00694"
         cx="101.39722"
         id="path1536-3-8"
         style="opacity:1;vector-effect:none;fill:#000000;fill-opacity:1;stroke:none;stroke-width:0.40000001;stroke-linecap:butt;stroke-linejoin:miter;stroke-miterlimit:4;stroke-dasharray:none;stroke-dashoffset:0;stroke-opacity:1" />
      <circle
         r="0.8018086"
         cy="162.22548"
         cx="101.39722"
         id="path1536-6-79"
         style="opacity:1;vector-effect:none;fill:#000000;fill-opacity:1;stroke:none;stroke-width:0.40000001;stroke-linecap:butt;stroke-linejoin:miter;stroke-miterlimit:4;stroke-dasharray:none;stroke-dashoffset:0;stroke-opacity:1" />
      <circle
         r="0.8018086"
         cy="170.444"
         cx="101.39722"
         id="path1536-7-2"
         style="opacity:1;vector-effect:none;fill:#000000;fill-opacity:1;stroke:none;stroke-width:0.40000001;stroke-linecap:butt;stroke-linejoin:miter;stroke-miterlimit:4;stroke-dasharray:none;stroke-dashoffset:0;stroke-opacity:1" />
      <circle
         r="0.8018086"
         cy="186.88109"
         cx="101.39722"
         id="path1536-5-0"
         style="opacity:1;vector-effect:none;fill:#000000;fill-opacity:1;stroke:none;stroke-width:0.40000001;stroke-linecap:butt;stroke-linejoin:miter;stroke-miterlimit:4;stroke-dasharray:none;stroke-dashoffset:0;stroke-opacity:1" />
      <circle
         r="0.8018086"
         cy="195.09961"
         cx="101.39722"
         id="path1536-3-3-2"
         style="opacity:1;vector-effect:none;fill:#000000;fill-opacity:1;stroke:none;stroke-width:0.40000001;stroke-linecap:butt;stroke-linejoin:miter;stroke-miterlimit:4;stroke-dasharray:none;stroke-dashoffset:0;stroke-opacity:1" />
      <circle
         r="0.8018086"
         cy="203.31816"
         cx="101.39722"
         id="path1536-6-5-3"
         style="opacity:1;vector-effect:none;fill:#000000;fill-opacity:1;stroke:none;stroke-width:0.40000001;stroke-linecap:butt;stroke-linejoin:miter;stroke-miterlimit:4;stroke-dasharray:none;stroke-dashoffset:0;stroke-opacity:1" />
      <circle
         r="0.8018086"
         cy="211.5367"
         cx="101.39722"
         id="path1536-7-6-7"
         style="opacity:1;vector-effect:none;fill:#000000;fill-opacity:1;stroke:none;stroke-width:0.40000001;stroke-linecap:butt;stroke-linejoin:miter;stroke-miterlimit:4;stroke-dasharray:none;stroke-dashoffset:0;stroke-opacity:1" />
      <circle
         r="0.8018086"
         cy="178.66254"
         cx="101.39722"
         id="path1536-5-2-5"
         style="opacity:1;vector-effect:none;fill:#000000;fill-opacity:1;stroke:none;stroke-width:0.40000001;stroke-linecap:butt;stroke-linejoin:miter;stroke-miterlimit:4;stroke-dasharray:none;stroke-dashoffset:0;stroke-opacity:1" />
      <circle
         r="0.8018086"
         cy="145.78839"
         cx="110.83912"
         id="path1536-2"
         style="opacity:1;vector-effect:none;fill:#000000;fill-opacity:1;stroke:none;stroke-width:0.40000001;stroke-linecap:butt;stroke-linejoin:miter;stroke-miterlimit:4;stroke-dasharray:none;stroke-dashoffset:0;stroke-opacity:1" />
      <circle
         r="0.8018086"
         cy="154.00694"
         cx="110.83912"
         id="path1536-3-89"
         style="opacity:1;vector-effect:none;fill:#000000;fill-opacity:1;stroke:none;stroke-width:0.40000001;stroke-linecap:butt;stroke-linejoin:miter;stroke-miterlimit:4;stroke-dasharray:none;stroke-dashoffset:0;stroke-opacity:1" />
      <circle
         r="0.8018086"
         cy="162.22548"
         cx="110.83912"
         id="path1536-6-73"
         style="opacity:1;vector-effect:none;fill:#000000;fill-opacity:1;stroke:none;stroke-width:0.40000001;stroke-linecap:butt;stroke-linejoin:miter;stroke-miterlimit:4;stroke-dasharray:none;stroke-dashoffset:0;stroke-opacity:1" />
      <circle
         r="0.8018086"
         cy="170.444"
         cx="110.83912"
         id="path1536-7-61"
         style="opacity:1;vector-effect:none;fill:#000000;fill-opacity:1;stroke:none;stroke-width:0.40000001;stroke-linecap:butt;stroke-linejoin:miter;stroke-miterlimit:4;stroke-dasharray:none;stroke-dashoffset:0;stroke-opacity:1" />
      <circle
         r="0.8018086"
         cy="186.88109"
         cx="110.83912"
         id="path1536-5-29"
         style="opacity:1;vector-effect:none;fill:#000000;fill-opacity:1;stroke:none;stroke-width:0.40000001;stroke-linecap:butt;stroke-linejoin:miter;stroke-miterlimit:4;stroke-dasharray:none;stroke-dashoffset:0;stroke-opacity:1" />
      <circle
         r="0.8018086"
         cy="195.09961"
         cx="110.83912"
         id="path1536-3-3-31"
         style="opacity:1;vector-effect:none;fill:#000000;fill-opacity:1;stroke:none;stroke-width:0.40000001;stroke-linecap:butt;stroke-linejoin:miter;stroke-miterlimit:4;stroke-dasharray:none;stroke-dashoffset:0;stroke-opacity:1" />
      <circle
         r="0.8018086"
         cy="203.31816"
         cx="110.83912"
         id="path1536-6-5-9"
         style="opacity:1;vector-effect:none;fill:#000000;fill-opacity:1;stroke:none;stroke-width:0.40000001;stroke-linecap:butt;stroke-linejoin:miter;stroke-miterlimit:4;stroke-dasharray:none;stroke-dashoffset:0;stroke-opacity:1" />
      <circle
         r="0.8018086"
         cy="211.5367"
         cx="110.83912"
         id="path1536-7-6-4"
         style="opacity:1;vector-effect:none;fill:#000000;fill-opacity:1;stroke:none;stroke-width:0.40000001;stroke-linecap:butt;stroke-linejoin:miter;stroke-miterlimit:4;stroke-dasharray:none;stroke-dashoffset:0;stroke-opacity:1" />
      <circle
         r="0.8018086"
         cy="178.66254"
         cx="110.83912"
         id="path1536-5-2-7"
         style="opacity:1;vector-effect:none;fill:#000000;fill-opacity:1;stroke:none;stroke-width:0.40000001;stroke-linecap:butt;stroke-linejoin:miter;stroke-miterlimit:4;stroke-dasharray:none;stroke-dashoffset:0;stroke-opacity:1" />
      <circle
         r="0.8018086"
         cy="145.78839"
         cx="120.28103"
         id="path1536-4"
         style="opacity:1;vector-effect:none;fill:#000000;fill-opacity:1;stroke:none;stroke-width:0.40000001;stroke-linecap:butt;stroke-linejoin:miter;stroke-miterlimit:4;stroke-dasharray:none;stroke-dashoffset:0;stroke-opacity:1" />
      <circle
         r="0.8018086"
         cy="154.00694"
         cx="120.28103"
         id="path1536-3-5"
         style="opacity:1;vector-effect:none;fill:#000000;fill-opacity:1;stroke:none;stroke-width:0.40000001;stroke-linecap:butt;stroke-linejoin:miter;stroke-miterlimit:4;stroke-dasharray:none;stroke-dashoffset:0;stroke-opacity:1" />
      <circle
         r="0.8018086"
         cy="162.22548"
         cx="120.28103"
         id="path1536-6-0"
         style="opacity:1;vector-effect:none;fill:#000000;fill-opacity:1;stroke:none;stroke-width:0.40000001;stroke-linecap:butt;stroke-linejoin:miter;stroke-miterlimit:4;stroke-dasharray:none;stroke-dashoffset:0;stroke-opacity:1" />
      <circle
         r="0.8018086"
         cy="170.444"
         cx="120.28103"
         id="path1536-7-3"
         style="opacity:1;vector-effect:none;fill:#000000;fill-opacity:1;stroke:none;stroke-width:0.40000001;stroke-linecap:butt;stroke-linejoin:miter;stroke-miterlimit:4;stroke-dasharray:none;stroke-dashoffset:0;stroke-opacity:1" />
      <circle
         r="0.8018086"
         cy="186.88109"
         cx="120.28103"
         id="path1536-5-6"
         style="opacity:1;vector-effect:none;fill:#000000;fill-opacity:1;stroke:none;stroke-width:0.40000001;stroke-linecap:butt;stroke-linejoin:miter;stroke-miterlimit:4;stroke-dasharray:none;stroke-dashoffset:0;stroke-opacity:1" />
      <circle
         r="0.8018086"
         cy="195.09961"
         cx="120.28103"
         id="path1536-3-3-1"
         style="opacity:1;vector-effect:none;fill:#000000;fill-opacity:1;stroke:none;stroke-width:0.40000001;stroke-linecap:butt;stroke-linejoin:miter;stroke-miterlimit:4;stroke-dasharray:none;stroke-dashoffset:0;stroke-opacity:1" />
      <circle
         r="0.8018086"
         cy="203.31816"
         cx="120.28103"
         id="path1536-6-5-0"
         style="opacity:1;vector-effect:none;fill:#000000;fill-opacity:1;stroke:none;stroke-width:0.40000001;stroke-linecap:butt;stroke-linejoin:miter;stroke-miterlimit:4;stroke-dasharray:none;stroke-dashoffset:0;stroke-opacity:1" />
      <circle
         r="0.8018086"
         cy="211.5367"
         cx="120.28103"
         id="path1536-7-6-6"
         style="opacity:1;vector-effect:none;fill:#000000;fill-opacity:1;stroke:none;stroke-width:0.40000001;stroke-linecap:butt;stroke-linejoin:miter;stroke-miterlimit:4;stroke-dasharray:none;stroke-dashoffset:0;stroke-opacity:1" />
      <circle
         r="0.8018086"
         cy="178.66254"
         cx="120.28103"
         id="path1536-5-2-3"
         style="opacity:1;vector-effect:none;fill:#000000;fill-opacity:1;stroke:none;stroke-width:0.40000001;stroke-linecap:butt;stroke-linejoin:miter;stroke-miterlimit:4;stroke-dasharray:none;stroke-dashoffset:0;stroke-opacity:1" />
      <circle
         r="0.8018086"
         cy="145.78839"
         cx="129.72293"
         id="path1536-615"
         style="opacity:1;vector-effect:none;fill:#000000;fill-opacity:1;stroke:none;stroke-width:0.40000001;stroke-linecap:butt;stroke-linejoin:miter;stroke-miterlimit:4;stroke-dasharray:none;stroke-dashoffset:0;stroke-opacity:1" />
      <circle
         r="0.8018086"
         cy="154.00694"
         cx="129.72293"
         id="path1536-3-54"
         style="opacity:1;vector-effect:none;fill:#000000;fill-opacity:1;stroke:none;stroke-width:0.40000001;stroke-linecap:butt;stroke-linejoin:miter;stroke-miterlimit:4;stroke-dasharray:none;stroke-dashoffset:0;stroke-opacity:1" />
      <circle
         r="0.8018086"
         cy="162.22548"
         cx="129.72293"
         id="path1536-6-76"
         style="opacity:1;vector-effect:none;fill:#000000;fill-opacity:1;stroke:none;stroke-width:0.40000001;stroke-linecap:butt;stroke-linejoin:miter;stroke-miterlimit:4;stroke-dasharray:none;stroke-dashoffset:0;stroke-opacity:1" />
      <circle
         r="0.8018086"
         cy="170.444"
         cx="129.72293"
         id="path1536-7-5"
         style="opacity:1;vector-effect:none;fill:#000000;fill-opacity:1;stroke:none;stroke-width:0.40000001;stroke-linecap:butt;stroke-linejoin:miter;stroke-miterlimit:4;stroke-dasharray:none;stroke-dashoffset:0;stroke-opacity:1" />
      <circle
         r="0.8018086"
         cy="186.88109"
         cx="129.72293"
         id="path1536-5-69"
         style="opacity:1;vector-effect:none;fill:#000000;fill-opacity:1;stroke:none;stroke-width:0.40000001;stroke-linecap:butt;stroke-linejoin:miter;stroke-miterlimit:4;stroke-dasharray:none;stroke-dashoffset:0;stroke-opacity:1" />
      <circle
         r="0.8018086"
         cy="195.09961"
         cx="129.72293"
         id="path1536-3-3-37"
         style="opacity:1;vector-effect:none;fill:#000000;fill-opacity:1;stroke:none;stroke-width:0.40000001;stroke-linecap:butt;stroke-linejoin:miter;stroke-miterlimit:4;stroke-dasharray:none;stroke-dashoffset:0;stroke-opacity:1" />
      <circle
         r="0.8018086"
         cy="203.31816"
         cx="129.72293"
         id="path1536-6-5-4"
         style="opacity:1;vector-effect:none;fill:#000000;fill-opacity:1;stroke:none;stroke-width:0.40000001;stroke-linecap:butt;stroke-linejoin:miter;stroke-miterlimit:4;stroke-dasharray:none;stroke-dashoffset:0;stroke-opacity:1" />
      <circle
         r="0.8018086"
         cy="211.5367"
         cx="129.72293"
         id="path1536-7-6-5"
         style="opacity:1;vector-effect:none;fill:#000000;fill-opacity:1;stroke:none;stroke-width:0.40000001;stroke-linecap:butt;stroke-linejoin:miter;stroke-miterlimit:4;stroke-dasharray:none;stroke-dashoffset:0;stroke-opacity:1" />
      <circle
         r="0.8018086"
         cy="178.66254"
         cx="129.72293"
         id="path1536-5-2-2"
         style="opacity:1;vector-effect:none;fill:#000000;fill-opacity:1;stroke:none;stroke-width:0.40000001;stroke-linecap:butt;stroke-linejoin:miter;stroke-miterlimit:4;stroke-dasharray:none;stroke-dashoffset:0;stroke-opacity:1" />
      <circle
         r="0.8018086"
         cy="145.78839"
         cx="139.16483"
         id="path1536-47"
         style="opacity:1;vector-effect:none;fill:#000000;fill-opacity:1;stroke:none;stroke-width:0.40000001;stroke-linecap:butt;stroke-linejoin:miter;stroke-miterlimit:4;stroke-dasharray:none;stroke-dashoffset:0;stroke-opacity:1" />
      <circle
         r="0.8018086"
         cy="154.00694"
         cx="139.16483"
         id="path1536-3-4"
         style="opacity:1;vector-effect:none;fill:#000000;fill-opacity:1;stroke:none;stroke-width:0.40000001;stroke-linecap:butt;stroke-linejoin:miter;stroke-miterlimit:4;stroke-dasharray:none;stroke-dashoffset:0;stroke-opacity:1" />
      <circle
         r="0.8018086"
         cy="162.22548"
         cx="139.16483"
         id="path1536-6-4"
         style="opacity:1;vector-effect:none;fill:#000000;fill-opacity:1;stroke:none;stroke-width:0.40000001;stroke-linecap:butt;stroke-linejoin:miter;stroke-miterlimit:4;stroke-dasharray:none;stroke-dashoffset:0;stroke-opacity:1" />
      <circle
         r="0.8018086"
         cy="170.444"
         cx="139.16483"
         id="path1536-7-30"
         style="opacity:1;vector-effect:none;fill:#000000;fill-opacity:1;stroke:none;stroke-width:0.40000001;stroke-linecap:butt;stroke-linejoin:miter;stroke-miterlimit:4;stroke-dasharray:none;stroke-dashoffset:0;stroke-opacity:1" />
      <circle
         r="0.8018086"
         cy="186.88109"
         cx="139.16483"
         id="path1536-5-7"
         style="opacity:1;vector-effect:none;fill:#000000;fill-opacity:1;stroke:none;stroke-width:0.40000001;stroke-linecap:butt;stroke-linejoin:miter;stroke-miterlimit:4;stroke-dasharray:none;stroke-dashoffset:0;stroke-opacity:1" />
      <circle
         r="0.8018086"
         cy="195.09961"
         cx="139.16483"
         id="path1536-3-3-8"
         style="opacity:1;vector-effect:none;fill:#000000;fill-opacity:1;stroke:none;stroke-width:0.40000001;stroke-linecap:butt;stroke-linejoin:miter;stroke-miterlimit:4;stroke-dasharray:none;stroke-dashoffset:0;stroke-opacity:1" />
      <circle
         r="0.8018086"
         cy="203.31816"
         cx="139.16483"
         id="path1536-6-5-68"
         style="opacity:1;vector-effect:none;fill:#000000;fill-opacity:1;stroke:none;stroke-width:0.40000001;stroke-linecap:butt;stroke-linejoin:miter;stroke-miterlimit:4;stroke-dasharray:none;stroke-dashoffset:0;stroke-opacity:1" />
      <circle
         r="0.8018086"
         cy="211.5367"
         cx="139.16483"
         id="path1536-7-6-8"
         style="opacity:1;vector-effect:none;fill:#000000;fill-opacity:1;stroke:none;stroke-width:0.40000001;stroke-linecap:butt;stroke-linejoin:miter;stroke-miterlimit:4;stroke-dasharray:none;stroke-dashoffset:0;stroke-opacity:1" />
      <circle
         r="0.8018086"
         cy="178.66254"
         cx="139.16483"
         id="path1536-5-2-4"
         style="opacity:1;vector-effect:none;fill:#000000;fill-opacity:1;stroke:none;stroke-width:0.40000001;stroke-linecap:butt;stroke-linejoin:miter;stroke-miterlimit:4;stroke-dasharray:none;stroke-dashoffset:0;stroke-opacity:1" />
      <circle
         r="0.8018086"
         cy="145.78839"
         cx="148.60672"
         id="path1536-14"
         style="opacity:1;vector-effect:none;fill:#000000;fill-opacity:1;stroke:none;stroke-width:0.40000001;stroke-linecap:butt;stroke-linejoin:miter;stroke-miterlimit:4;stroke-dasharray:none;stroke-dashoffset:0;stroke-opacity:1" />
      <circle
         r="0.8018086"
         cy="154.00694"
         cx="148.60672"
         id="path1536-3-9"
         style="opacity:1;vector-effect:none;fill:#000000;fill-opacity:1;stroke:none;stroke-width:0.40000001;stroke-linecap:butt;stroke-linejoin:miter;stroke-miterlimit:4;stroke-dasharray:none;stroke-dashoffset:0;stroke-opacity:1" />
      <circle
         r="0.8018086"
         cy="162.22548"
         cx="148.60672"
         id="path1536-6-2"
         style="opacity:1;vector-effect:none;fill:#000000;fill-opacity:1;stroke:none;stroke-width:0.40000001;stroke-linecap:butt;stroke-linejoin:miter;stroke-miterlimit:4;stroke-dasharray:none;stroke-dashoffset:0;stroke-opacity:1" />
      <circle
         r="0.8018086"
         cy="170.444"
         cx="148.60672"
         id="path1536-7-06"
         style="opacity:1;vector-effect:none;fill:#000000;fill-opacity:1;stroke:none;stroke-width:0.40000001;stroke-linecap:butt;stroke-linejoin:miter;stroke-miterlimit:4;stroke-dasharray:none;stroke-dashoffset:0;stroke-opacity:1" />
      <circle
         r="0.8018086"
         cy="186.88109"
         cx="148.60672"
         id="path1536-5-8"
         style="opacity:1;vector-effect:none;fill:#000000;fill-opacity:1;stroke:none;stroke-width:0.40000001;stroke-linecap:butt;stroke-linejoin:miter;stroke-miterlimit:4;stroke-dasharray:none;stroke-dashoffset:0;stroke-opacity:1" />
      <circle
         r="0.8018086"
         cy="195.09961"
         cx="148.60672"
         id="path1536-3-3-9"
         style="opacity:1;vector-effect:none;fill:#000000;fill-opacity:1;stroke:none;stroke-width:0.40000001;stroke-linecap:butt;stroke-linejoin:miter;stroke-miterlimit:4;stroke-dasharray:none;stroke-dashoffset:0;stroke-opacity:1" />
      <circle
         r="0.8018086"
         cy="203.31816"
         cx="148.60672"
         id="path1536-6-5-2"
         style="opacity:1;vector-effect:none;fill:#000000;fill-opacity:1;stroke:none;stroke-width:0.40000001;stroke-linecap:butt;stroke-linejoin:miter;stroke-miterlimit:4;stroke-dasharray:none;stroke-dashoffset:0;stroke-opacity:1" />
      <circle
         r="0.8018086"
         cy="211.5367"
         cx="148.60672"
         id="path1536-7-6-66"
         style="opacity:1;vector-effect:none;fill:#000000;fill-opacity:1;stroke:none;stroke-width:0.40000001;stroke-linecap:butt;stroke-linejoin:miter;stroke-miterlimit:4;stroke-dasharray:none;stroke-dashoffset:0;stroke-opacity:1" />
      <circle
         r="0.8018086"
         cy="178.66254"
         cx="148.60672"
         id="path1536-5-2-49"
         style="opacity:1;vector-effect:none;fill:#000000;fill-opacity:1;stroke:none;stroke-width:0.40000001;stroke-linecap:butt;stroke-linejoin:miter;stroke-miterlimit:4;stroke-dasharray:none;stroke-dashoffset:0;stroke-opacity:1" />
      <circle
         r="0.8018086"
         cy="145.78839"
         cx="158.04863"
         id="path1536-48"
         style="opacity:1;vector-effect:none;fill:#000000;fill-opacity:1;stroke:none;stroke-width:0.40000001;stroke-linecap:butt;stroke-linejoin:miter;stroke-miterlimit:4;stroke-dasharray:none;stroke-dashoffset:0;stroke-opacity:1" />
      <circle
         r="0.8018086"
         cy="154.00694"
         cx="158.04863"
         id="path1536-3-7"
         style="opacity:1;vector-effect:none;fill:#000000;fill-opacity:1;stroke:none;stroke-width:0.40000001;stroke-linecap:butt;stroke-linejoin:miter;stroke-miterlimit:4;stroke-dasharray:none;stroke-dashoffset:0;stroke-opacity:1" />
      <circle
         r="0.8018086"
         cy="162.22548"
         cx="158.04863"
         id="path1536-6-1"
         style="opacity:1;vector-effect:none;fill:#000000;fill-opacity:1;stroke:none;stroke-width:0.40000001;stroke-linecap:butt;stroke-linejoin:miter;stroke-miterlimit:4;stroke-dasharray:none;stroke-dashoffset:0;stroke-opacity:1" />
      <circle
         r="0.8018086"
         cy="170.444"
         cx="158.04863"
         id="path1536-7-7"
         style="opacity:1;vector-effect:none;fill:#000000;fill-opacity:1;stroke:none;stroke-width:0.40000001;stroke-linecap:butt;stroke-linejoin:miter;stroke-miterlimit:4;stroke-dasharray:none;stroke-dashoffset:0;stroke-opacity:1" />
      <circle
         r="0.8018086"
         cy="186.88109"
         cx="158.04863"
         id="path1536-5-27"
         style="opacity:1;vector-effect:none;fill:#000000;fill-opacity:1;stroke:none;stroke-width:0.40000001;stroke-linecap:butt;stroke-linejoin:miter;stroke-miterlimit:4;stroke-dasharray:none;stroke-dashoffset:0;stroke-opacity:1" />
      <circle
         r="0.8018086"
         cy="195.09961"
         cx="158.04863"
         id="path1536-3-3-22"
         style="opacity:1;vector-effect:none;fill:#000000;fill-opacity:1;stroke:none;stroke-width:0.40000001;stroke-linecap:butt;stroke-linejoin:miter;stroke-miterlimit:4;stroke-dasharray:none;stroke-dashoffset:0;stroke-opacity:1" />
      <circle
         r="0.8018086"
         cy="203.31816"
         cx="158.04863"
         id="path1536-6-5-61"
         style="opacity:1;vector-effect:none;fill:#000000;fill-opacity:1;stroke:none;stroke-width:0.40000001;stroke-linecap:butt;stroke-linejoin:miter;stroke-miterlimit:4;stroke-dasharray:none;stroke-dashoffset:0;stroke-opacity:1" />
      <circle
         r="0.8018086"
         cy="211.5367"
         cx="158.04863"
         id="path1536-7-6-06"
         style="opacity:1;vector-effect:none;fill:#000000;fill-opacity:1;stroke:none;stroke-width:0.40000001;stroke-linecap:butt;stroke-linejoin:miter;stroke-miterlimit:4;stroke-dasharray:none;stroke-dashoffset:0;stroke-opacity:1" />
      <circle
         r="0.8018086"
         cy="178.66254"
         cx="158.04863"
         id="path1536-5-2-1"
         style="opacity:1;vector-effect:none;fill:#000000;fill-opacity:1;stroke:none;stroke-width:0.40000001;stroke-linecap:butt;stroke-linejoin:miter;stroke-miterlimit:4;stroke-dasharray:none;stroke-dashoffset:0;stroke-opacity:1" />
      <circle
         r="0.8018086"
         cy="145.78839"
         cx="167.49051"
         id="path1536-49"
         style="opacity:1;vector-effect:none;fill:#000000;fill-opacity:1;stroke:none;stroke-width:0.40000001;stroke-linecap:butt;stroke-linejoin:miter;stroke-miterlimit:4;stroke-dasharray:none;stroke-dashoffset:0;stroke-opacity:1" />
      <circle
         r="0.8018086"
         cy="154.00694"
         cx="167.49051"
         id="path1536-3-0"
         style="opacity:1;vector-effect:none;fill:#000000;fill-opacity:1;stroke:none;stroke-width:0.40000001;stroke-linecap:butt;stroke-linejoin:miter;stroke-miterlimit:4;stroke-dasharray:none;stroke-dashoffset:0;stroke-opacity:1" />
      <circle
         r="0.8018086"
         cy="162.22548"
         cx="167.49051"
         id="path1536-6-9"
         style="opacity:1;vector-effect:none;fill:#000000;fill-opacity:1;stroke:none;stroke-width:0.40000001;stroke-linecap:butt;stroke-linejoin:miter;stroke-miterlimit:4;stroke-dasharray:none;stroke-dashoffset:0;stroke-opacity:1" />
      <circle
         r="0.8018086"
         cy="170.444"
         cx="167.49051"
         id="path1536-7-1"
         style="opacity:1;vector-effect:none;fill:#000000;fill-opacity:1;stroke:none;stroke-width:0.40000001;stroke-linecap:butt;stroke-linejoin:miter;stroke-miterlimit:4;stroke-dasharray:none;stroke-dashoffset:0;stroke-opacity:1" />
      <circle
         r="0.8018086"
         cy="186.88109"
         cx="167.49051"
         id="path1536-5-77"
         style="opacity:1;vector-effect:none;fill:#000000;fill-opacity:1;stroke:none;stroke-width:0.40000001;stroke-linecap:butt;stroke-linejoin:miter;stroke-miterlimit:4;stroke-dasharray:none;stroke-dashoffset:0;stroke-opacity:1" />
      <circle
         r="0.8018086"
         cy="195.09961"
         cx="167.49051"
         id="path1536-3-3-11"
         style="opacity:1;vector-effect:none;fill:#000000;fill-opacity:1;stroke:none;stroke-width:0.40000001;stroke-linecap:butt;stroke-linejoin:miter;stroke-miterlimit:4;stroke-dasharray:none;stroke-dashoffset:0;stroke-opacity:1" />
      <circle
         r="0.8018086"
         cy="203.31816"
         cx="167.49051"
         id="path1536-6-5-5"
         style="opacity:1;vector-effect:none;fill:#000000;fill-opacity:1;stroke:none;stroke-width:0.40000001;stroke-linecap:butt;stroke-linejoin:miter;stroke-miterlimit:4;stroke-dasharray:none;stroke-dashoffset:0;stroke-opacity:1" />
      <circle
         r="0.8018086"
         cy="211.5367"
         cx="167.49051"
         id="path1536-7-6-9"
         style="opacity:1;vector-effect:none;fill:#000000;fill-opacity:1;stroke:none;stroke-width:0.40000001;stroke-linecap:butt;stroke-linejoin:miter;stroke-miterlimit:4;stroke-dasharray:none;stroke-dashoffset:0;stroke-opacity:1" />
      <circle
         r="0.8018086"
         cy="178.66254"
         cx="167.49051"
         id="path1536-5-2-77"
         style="opacity:1;vector-effect:none;fill:#000000;fill-opacity:1;stroke:none;stroke-width:0.40000001;stroke-linecap:butt;stroke-linejoin:miter;stroke-miterlimit:4;stroke-dasharray:none;stroke-dashoffset:0;stroke-opacity:1" />
      <circle
         r="0.8018086"
         cy="145.78839"
         cx="176.93243"
         id="path1536-73"
         style="opacity:1;vector-effect:none;fill:#000000;fill-opacity:1;stroke:none;stroke-width:0.40000001;stroke-linecap:butt;stroke-linejoin:miter;stroke-miterlimit:4;stroke-dasharray:none;stroke-dashoffset:0;stroke-opacity:1" />
      <circle
         r="0.8018086"
         cy="154.00694"
         cx="176.93243"
         id="path1536-3-6"
         style="opacity:1;vector-effect:none;fill:#000000;fill-opacity:1;stroke:none;stroke-width:0.40000001;stroke-linecap:butt;stroke-linejoin:miter;stroke-miterlimit:4;stroke-dasharray:none;stroke-dashoffset:0;stroke-opacity:1" />
      <circle
         r="0.8018086"
         cy="162.22548"
         cx="176.93243"
         id="path1536-6-56"
         style="opacity:1;vector-effect:none;fill:#000000;fill-opacity:1;stroke:none;stroke-width:0.40000001;stroke-linecap:butt;stroke-linejoin:miter;stroke-miterlimit:4;stroke-dasharray:none;stroke-dashoffset:0;stroke-opacity:1" />
      <circle
         r="0.8018086"
         cy="170.444"
         cx="176.93243"
         id="path1536-7-39"
         style="opacity:1;vector-effect:none;fill:#000000;fill-opacity:1;stroke:none;stroke-width:0.40000001;stroke-linecap:butt;stroke-linejoin:miter;stroke-miterlimit:4;stroke-dasharray:none;stroke-dashoffset:0;stroke-opacity:1" />
      <circle
         r="0.8018086"
         cy="186.88109"
         cx="176.93243"
         id="path1536-5-4"
         style="opacity:1;vector-effect:none;fill:#000000;fill-opacity:1;stroke:none;stroke-width:0.40000001;stroke-linecap:butt;stroke-linejoin:miter;stroke-miterlimit:4;stroke-dasharray:none;stroke-dashoffset:0;stroke-opacity:1" />
      <circle
         r="0.8018086"
         cy="195.09961"
         cx="176.93243"
         id="path1536-3-3-81"
         style="opacity:1;vector-effect:none;fill:#000000;fill-opacity:1;stroke:none;stroke-width:0.40000001;stroke-linecap:butt;stroke-linejoin:miter;stroke-miterlimit:4;stroke-dasharray:none;stroke-dashoffset:0;stroke-opacity:1" />
      <circle
         r="0.8018086"
         cy="203.31816"
         cx="176.93243"
         id="path1536-6-5-29"
         style="opacity:1;vector-effect:none;fill:#000000;fill-opacity:1;stroke:none;stroke-width:0.40000001;stroke-linecap:butt;stroke-linejoin:miter;stroke-miterlimit:4;stroke-dasharray:none;stroke-dashoffset:0;stroke-opacity:1" />
      <circle
         r="0.8018086"
         cy="211.5367"
         cx="176.93243"
         id="path1536-7-6-3"
         style="opacity:1;vector-effect:none;fill:#000000;fill-opacity:1;stroke:none;stroke-width:0.40000001;stroke-linecap:butt;stroke-linejoin:miter;stroke-miterlimit:4;stroke-dasharray:none;stroke-dashoffset:0;stroke-opacity:1" />
      <circle
         r="0.8018086"
         cy="178.66254"
         cx="176.93243"
         id="path1536-5-2-9"
         style="opacity:1;vector-effect:none;fill:#000000;fill-opacity:1;stroke:none;stroke-width:0.40000001;stroke-linecap:butt;stroke-linejoin:miter;stroke-miterlimit:4;stroke-dasharray:none;stroke-dashoffset:0;stroke-opacity:1" />
    </g>
    <path
       style="fill:none;stroke:#000000;stroke-width:0.60000002;stroke-linecap:butt;stroke-linejoin:miter;stroke-miterlimit:4;stroke-dasharray:none;stroke-opacity:1;marker-end:url(#Arrow2Mend)"
       d="M 82.413506,178.71031 H 178.64674"
       id="path1873"
       inkscape:connector-curvature="0"
       sodipodi:nodetypes="cc" />
    <path
       style="opacity:1;vector-effect:none;fill:none;fill-opacity:1;stroke:#000000;stroke-width:0.60000002;stroke-linecap:butt;stroke-linejoin:miter;stroke-miterlimit:4;stroke-dasharray:none;stroke-dashoffset:0;stroke-opacity:1;marker-end:url(#marker2515)"
       d="M 129.64583,211.57738 V 144.29762"
       id="path2467"
       inkscape:connector-curvature="0"
       sodipodi:nodetypes="cc" />
    <circle
       style="opacity:1;vector-effect:none;fill:url(#radialGradient2771);fill-opacity:1;stroke:#000000;stroke-width:0.21944296;stroke-linecap:butt;stroke-linejoin:miter;stroke-miterlimit:4;stroke-dasharray:none;stroke-dashoffset:0;stroke-opacity:1"
       id="path2715"
       cx="167.82143"
       cy="153.55804"
       r="3.2140882" />
    <text
       xml:space="preserve"
       style="font-style:normal;font-variant:normal;font-weight:normal;font-stretch:normal;font-size:8.75441551px;line-height:1.25;font-family:'Linux Libertine O';-inkscape-font-specification:'Linux Libertine O';letter-spacing:0px;word-spacing:0px;fill:#000000;fill-opacity:1;stroke:none;stroke-width:0.21886039"
       x="124.23652"
       y="185.5153"
       id="text6464"><tspan
         sodipodi:role="line"
         id="tspan6462"
         x="124.23652"
         y="185.5153"
         style="stroke-width:0.21886039">0</tspan></text>
    <g
       transform="matrix(0.10314235,0,0,0.10314235,96.354193,190.15101)"
       id="g5593">
      <path
         style="fill:#faa51d;stroke:#000000"
         inkscape:connector-curvature="0"
         d="m 38.988,80.967 c 0,0 -8.832,6.201 -17.07,8.412 l 0.086,0.215 c 1.247,1.824 5.869,7.498 -0.334,9.496 -5.333,1.718 -15.12,-13.104 -10.821,-15.901 2.626,-1.713 4.892,-0.252 4.892,-0.252 0,0 3.475,-1.069 6.001,-2.345 4.304,-2.162 5.784,-3.453 5.784,-3.453 0,0 4.185,-4.307 6.856,-4.137 2.669,0.17 8.058,4.713 4.606,7.965 z m -19.342,9.123 2.271,-0.711"
         id="Back_Leg" />
      <g
         id="Tail">
        <path
           style="fill:#faa51d;stroke:#000000"
           inkscape:connector-curvature="0"
           d="M 23.295,73.217 C 20.88,72.766 17.99,71.906 15.553,69.713 10.102,64.807 8.359,56.713 4.505,58.799 c -3.856,2.088 -3.782,15.166 8.353,19.195 4.182,1.391 7.998,1.395 11.091,1.312 0.812,-0.026 7.718,-0.655 10.079,-4.075 2.361,-3.419 0.719,-4.271 -0.09,-4.744 -0.81,-0.471 -7.227,3.368 -10.643,2.73 z"
           id="Tail_1_" />
        <path
           style="fill:#ffffff"
           inkscape:connector-curvature="0"
           d="m 4.641,59.107 c -1.437,0.778 -2.256,3.397 -1.994,6.374 0.141,1.594 1.104,5.652 4.968,9.072 0.275,-0.545 -0.975,-2.936 0.742,-4.379 1.837,-1.543 4.86,-1.225 5.853,-1.061 -1.663,-1.812 -3.004,-3.812 -4.176,-5.64 C 7.751,59.922 6.475,58.116 4.641,59.107 Z"
           id="Tail_Tip" />
      </g>
      <path
         style="fill:#faa51d;stroke:#000000"
         inkscape:connector-curvature="0"
         d="m 52.94,69.096 c 0,0 1.234,0.166 4.744,3.677 3.509,3.509 6.025,2.16 8.911,0.724 2.877,-1.442 10.536,-6.127 6.489,-9.817 -4.05,-3.688 -6.207,1.146 -9.716,2.405 -3.511,1.26 -5.06,-2.487 -6.856,-4.287 -0.59,-0.594 -1.188,-1.098 -1.729,-1.506 0,0 -0.972,-0.758 -1.905,2.791 -0.935,3.541 -1.945,4.544 0.062,6.013 z"
         id="R_Arm" />
      <g
         id="Front_Leg_x2F_Body_1_">
        <path
           style="fill:#faa51d;stroke:#000000"
           inkscape:connector-curvature="0"
           d="m 47.524,76.224 c 1.188,-0.912 2.396,-2.401 3.951,-4.714 1.296,-1.926 2.699,-5.577 2.699,-5.577 0.875,-2.521 1.935,-6.576 -1.901,-7.296 -1.553,-0.291 -4.079,-0.098 -7.67,-0.776 -3.593,-0.681 -6.798,-2.522 -9.517,2.233 -2.719,4.757 -9.591,8.271 -1.057,16.562 0,0 4.901,3.842 10.765,9.639 4.832,4.774 12.044,10.603 12.044,10.603 0,0 18.973,2.188 19.534,-0.694 1.923,-9.789 -14.775,-6.91 -14.775,-6.91 0,0 -4.604,-3.933 -6.727,-5.795 C 51.393,80.441 43.745,72.728 43.745,72.728"
           id="Front_Leg_x2F_Body" />
        <path
           style="fill:#ffffff"
           inkscape:connector-curvature="0"
           d="M 49.74,64.551 C 44.8,61.895 42.526,64.536 41,66.073 c -2.645,2.654 3.442,6.61 3.442,6.61 l 3.062,3.089 c 2.999,-3.496 4.579,-5.874 5.292,-7.934 -0.142,-0.941 -0.878,-2.113 -3.056,-3.287 z"
           id="Belly" />
      </g>
      <path
         style="fill:#faa51d;stroke:#000000"
         inkscape:connector-curvature="0"
         d="m 30.697,67.43 c 0.749,-0.571 2.89,-2.202 4.854,-3.657 2.428,-1.799 6.117,-5.849 1.077,-7.646 -5.04,-1.801 -7.508,1.604 -11.52,4.945 -2.159,1.801 -5.308,2.698 -4.319,6.209 0.993,3.512 4.862,13.407 11.789,10.17 6.93,-3.238 -1.799,-9.181 -3.06,-11.156"
         id="L_Arm" />
      <g
         id="Head">
        <g
           id="Head_1_">
          <path
             style="fill:#faa51d;stroke:#000000"
             inkscape:connector-curvature="0"
             d="m 86.452,37.457 c -1.472,-6.447 -8.891,-7.579 -8.891,-7.579 0,0 0.176,-5.351 -2.628,-10.347 -1.856,-3.307 -8.351,-8.042 -8.351,-8.042 l -2.854,-11.55 -7.43,7.32 -2.854,1.105 C 51.905,8.221 48.726,8.052 46.959,8.137 42.23,8.362 37.732,10.173 37.732,10.173 l -12.878,-8.524 2.233,18.91 c 0.646,-0.786 -10.553,12.802 -3.477,24.22 3.319,5.36 10.159,10.124 15.599,11.947 4.062,1.36 10.833,1.737 14,1.737 2.646,0 7.768,-0.541 10.32,-0.979 3.021,-0.519 6.479,-1.629 10.055,-3.108 9.497,-3.934 14.338,-10.472 12.868,-16.919 z M 39.771,12.212 37.736,10.173 M 53.688,8.212 c 2,0.333 4.333,1.366 4.333,1.366"
             id="Head_Fill" />
          <path
             style="fill:#ffffff"
             inkscape:connector-curvature="0"
             d="m 77.146,30.129 -2.881,-3.107 -9.113,2.661 c 0,0.01 -0.005,1.619 -1.42,2.933 -0.646,0.6 -1.583,1.138 -2.948,1.435 -4.371,0.951 -11.212,-2.277 -11.212,-2.277 l -7.784,3.417 c 0,0 -4.744,0.522 -7.244,2.956 -0.833,0.812 -1.417,1.835 -1.492,3.123 -0.493,8.398 8.68,13.252 15.083,15.602 1.778,0.652 2.388,0.851 3.472,1.139 0,0 7.424,-0.195 10.181,-0.588 3.032,-0.432 7.578,-1.758 11.154,-3.236 9.498,-3.933 14.601,-10.024 13.129,-16.471 -1.474,-6.451 -8.925,-7.587 -8.925,-7.587 z"
             id="Muzzle" />
        </g>
        <g
           id="L_Eye">
          <path
             style="fill:#ffffff;stroke:#000000"
             inkscape:connector-curvature="0"
             d="m 48.638,22.831 c 2.926,4.48 2.618,9.862 -0.682,12.015 -3.303,2.159 -8.352,0.272 -11.275,-4.208 -2.928,-4.48 -2.624,-9.86 0.678,-12.017 3.302,-2.156 8.35,-0.272 11.279,4.21"
             id="Eyeball_1_" />
          <path
             inkscape:connector-curvature="0"
             d="m 46.85,28.719 c 0,1.081 -0.803,1.957 -1.801,1.957 -0.992,0 -1.804,-0.878 -1.804,-1.957 0,-1.08 0.812,-1.957 1.804,-1.957 0.996,0 1.801,0.877 1.801,1.957"
             id="Pupil_1_" />
        </g>
        <g
           id="R_Eye">
          <path
             style="fill:#ffffff;stroke:#000000"
             inkscape:connector-curvature="0"
             d="m 72.361,19.75 c 2.925,4.479 3.283,9.419 0.492,11.243 C 70.06,32.818 65.672,30.441 62.749,25.959 59.816,21.479 59.67,16.825 62.463,15 c 2.787,-1.823 6.971,0.268 9.898,4.75"
             id="Eyeball" />
          <path
             inkscape:connector-curvature="0"
             d="m 71.86,26.734 c 0,1.08 -0.802,1.956 -1.8,1.956 -0.993,0 -1.804,-0.877 -1.804,-1.956 0,-1.08 0.811,-1.958 1.804,-1.958 0.998,0 1.8,0.878 1.8,1.958"
             id="Pupil" />
        </g>
        <path
           style="fill:#5e4a42;stroke:#000000"
           inkscape:connector-curvature="0"
           d="m 60.536,32.138 c 1.854,0 4.556,-0.284 4.696,0.569 0.145,0.855 -1.709,4.203 -2.987,4.345 -1.282,0.142 -6.125,-2.353 -6.194,-3.919 -0.074,-1.566 2.774,-0.995 4.485,-0.995"
           id="Nose" />
        <path
           inkscape:connector-curvature="0"
           d="M 22.75,36.602 C 22.727,36.585 20.368,34.842 16.748,33.24 12.736,31.463 10.485,30.98 10.464,30.975 L 10.709,29.8 c 0.095,0.02 2.381,0.506 6.525,2.342 3.751,1.661 6.133,3.424 6.232,3.498 z"
           id="Whisker_3_" />
        <path
           inkscape:connector-curvature="0"
           d="m 16.628,41.254 c -2.035,0 -5.092,-0.276 -5.238,-0.289 l 0.107,-1.195 c 0.041,0.004 4.088,0.367 5.887,0.266 1.82,-0.104 5.412,-0.578 5.447,-0.583 l 0.157,1.189 c -0.148,0.02 -3.67,0.484 -5.537,0.591 -0.242,0.015 -0.522,0.021 -0.823,0.021 z"
           id="Whisker_2_" />
        <path
           inkscape:connector-curvature="0"
           d="M 82.524,35.475 82.33,34.29 c 0.046,-0.007 4.524,-0.744 6.761,-1.523 2.573,-0.894 4.326,-2.415 4.345,-2.43 l 0.791,0.902 c -0.078,0.068 -1.948,1.691 -4.742,2.661 -2.334,0.814 -6.774,1.544 -6.961,1.575 z"
           id="Whisker_1_" />
        <path
           inkscape:connector-curvature="0"
           d="m 91.551,42.979 c -0.812,0 -1.905,-0.035 -3.189,-0.163 -2.858,-0.286 -5.584,-1.379 -5.699,-1.426 l 0.45,-1.112 c 0.027,0.011 2.686,1.075 5.368,1.344 2.672,0.267 4.518,0.111 4.535,0.11 l 0.104,1.195 c -0.043,0.004 -0.612,0.052 -1.569,0.052 z"
           id="Whisker" />
        <path
           style="fill:none;stroke:#231f20;stroke-width:1.20000005"
           inkscape:connector-curvature="0"
           d="m 47.545,39.447 c 0,0 10.347,3.054 14.217,3.896 3.867,0.842 10.851,1.684 10.851,1.684 0,0 -7.989,10.245 -17.327,7.645 -9.339,-2.597 -9.171,-8.485 -7.741,-13.225 z"
           id="Mouth" />
      </g>
    </g>
  </g>
</svg>
